spotid,parent,pointarea,pref,area,pointname,latd,lond,hotspring,temple,night,drive,namiki,ropeway,waterfall,stroller,nearstation,koyomatsuri,rank,obsmon,obsday,migoromon,migoroday,migoro
26612,1,66,OKAYAMA,chugoku,みやま公園,34.5106582557568,133.929020006532,1,,0,,,,,1,1,,0,8,31,11,12,17
24925,1,49,YAMANASHI,chubu,道志川沿い,35.5115414876951,139.003955291893,1,,0,,,,,,,,0,9,8,11,8,15
26101,1,61,KYOTO,kinki,嵐山,35.0106149645605,135.681253802736,1,,0,,,,,1,,,0,8,31,11,21,14
25210,1,52,GIFU,chubu,奥飛騨温泉郷,36.2822288176968,137.579929141706,1,,1,1,,1,1,1,,,0,8,31,10,24,17
28105,1,81,YAMAGUCHI,chugoku,龍蔵寺,34.1677016159083,131.412225340241,1,,0,,,,1,1,,,0,8,31,11,18,10
24454,1,44,TOKYO,kanto,桜ヶ丘公園,35.6364334130357,139.460608227453,,,0,,,,,1,,,0,8,31,12,1,12
23604,1,36,FUKUSHIMA,tohoku,夏井川渓谷,37.1898928807763,140.810129588123,,,0,1,,,1,,,,0,8,31,11,5,21
26405,1,64,NARA,kinki,みたらい渓谷,34.235871067827,135.875468630263,1,,0,,,,1,,,,0,9,1,11,6,10
28816,1,88,KAGOSHIMA,kyusyu,垂水千本イチョウ,31.4881280946071,130.741272977415,,,1,,,,,,,1,0,9,8,11,29,9
28226,1,82,FUKUOKA,kyusyu,日向神峡,33.1760378403126,130.78016525638,,,0,1,,,,1,,,0,8,31,11,10,9
25013,1,50,SHIZUOKA,chubu,滑沢渓谷,34.8468726125168,138.915457190562,1,,0,1,,,1,,1,,0,8,31,11,22,11
23615,1,36,FUKUSHIMA,tohoku,ツムジクラ滝,37.3967300777231,139.718921508143,1,,0,1,,,1,1,,,0,8,31,10,30,15
26021,1,60,SHIGA,kinki,教林坊,35.138893885758,136.163870742141,,,1,,,,,,,1,0,8,31,11,22,19
24223,,42,GUNMA,kanto,谷川岳(ロープウェイ土合口駅),36.8362722653198,138.961825546671,1,,0,,,1,,,,,0,9,15,10,29,12
26811,1,69,TOTTORI,chugoku,わかさ氷ノ山,35.3589340535005,134.489194070651,1,,0,,,,,1,,,0,8,31,11,3,10
24318,1,43,SAITAMA,kanto,秩父華厳の滝,36.0845243846856,139.041572389476,1,,1,,,,1,,,,0,8,31,11,21,15
23519,1,35,YAMAGATA,tohoku,山形県総合運動公園,38.3378448347283,140.377522564357,1,,1,,,,,1,,,0,8,31,11,2,12
21201,,12,HOKKAIDO,hokkaido,大雪山(層雲峡温泉),43.7259255702534,142.94515324024,1,,1,,,,,,1,1,0,9,15,10,12,11
25606,1,56,ISHIKAWA,chubu,宝達山,36.782031536834,136.812801938185,,,0,1,,,,1,1,,0,8,31,11,11,12
25025,1,50,SHIZUOKA,chubu,明神峡,35.0619076917894,137.912270414539,,,0,1,,,,,,,0,8,31,11,14,10
24206,1,42,GUNMA,kanto,奥利根(照葉峡),36.853868244767,139.107619521989,1,,0,,,,1,,,,0,8,31,10,21,13
25128,1,51,AICHI,chubu,王滝渓谷,35.0675587693657,137.242976537238,,,0,1,,,1,,,,0,8,31,11,19,12
24014,,40,IBARAKI,kanto,筑波山(中腹),36.2206992361449,140.106107208842,1,,1,1,,1,,,,,0,8,31,11,18,15
24440,1,44,TOKYO,kanto,神代植物公園,35.6720313969611,139.545899217514,1,,0,,,,,1,,,0,8,31,12,1,15
23409,1,34,MIYAGI,tohoku,山中七ヶ宿街道,37.9649878833872,140.510826462371,1,,0,,,,1,,,,0,8,31,10,28,18
23102,1,31,AOMORI,tohoku,十二湖,40.56582350264,139.973721126711,,,0,1,,,,1,1,,0,8,31,10,28,15
23113,1,31,AOMORI,tohoku,城ヶ倉温泉,40.6561898842681,140.8359891,1,,0,1,,1,,1,1,,0,8,31,10,18,8
24835,1,48,NAGANO,chubu,与田切渓谷,35.6785275956415,137.843907539051,1,,0,,,,,,,,0,8,31,11,2,21
23631,1,36,FUKUSHIMA,tohoku,沼沢湖,37.4559200838807,139.583634546375,1,,0,1,,,,,,,0,9,7,11,1,11
26512,1,65,WAKAYAMA,kinki,古座川峡,33.5568931979979,135.711402540837,1,,0,,,,,,,,0,8,31,11,26,10
24606,1,46,KANAGAWA,kanto,鶴岡八幡宮,35.3248554561668,139.556084153432,,,0,,,,,,1,,0,8,31,12,4,9
28508,1,85,SAGA,kyusyu,仁比山神社,33.3583478639547,130.364857349098,1,,0,,,,,,1,,0,8,31,11,16,10
24816,1,48,NAGANO,chubu,高峰高原,36.4061353977287,138.470101558212,1,,0,1,,,,1,,,0,8,31,10,17,23
23302,1,33,IWATE,tohoku,盛岡城跡公園(岩手公園),39.7002115021859,141.15089568978,1,,1,,,,,1,,,0,8,31,11,4,11
28818,1,88,KAGOSHIMA,kyusyu,新川渓谷遊歩道,31.8297510444143,130.737695033665,1,,0,1,,,,1,,,0,8,31,11,17,10
27318,,73,EHIME,chugoku,石鎚山(ロープウェイ下谷駅),33.8034864602435,133.148380005506,1,,0,1,,1,1,1,,,0,8,31,11,8,11
25227,,52,GIFU,chubu,白川郷(合掌造り集落周辺),36.2554506126372,136.90275281956,1,,0,1,,,1,1,1,,0,8,31,11,2,14
25216,1,52,GIFU,chubu,付知峡,35.6983796402222,137.441694616506,1,,0,,,,1,,,,0,8,31,11,7,13
25026,1,50,SHIZUOKA,chubu,龍潭寺,34.8285917597223,137.66799641759,1,,1,,,,,,1,,0,8,31,11,18,23
27207,1,72,KAGAWA,chugoku,雲辺寺山,34.0366923550224,133.722896954792,,,0,,,1,,1,,,0,8,31,11,5,15
26323,1,63,HYOGO,kinki,原不動滝,35.1979660774786,134.501788038326,1,,0,1,,,1,,,,0,9,10,11,8,15
21215,,12,HOKKAIDO,hokkaido,大雪山旭岳(姿見の池付近),43.6610265972312,142.826165251131,1,,0,,,1,,,,,2,9,15,9,16,13
26137,1,61,KYOTO,kinki,大原野神社,34.9592249759311,135.656071797698,,,0,,,,,1,1,1,0,8,31,11,15,8
25416,1,54,NIIGATA,chubu,銀山平,37.1337591894706,139.168475564359,1,,0,1,,,,,,,0,8,31,10,25,15
28311,1,83,OITA,kyusyu,深耶馬溪,33.3702147649883,131.164990233786,1,,1,1,,,,1,,,0,8,31,11,11,11
25718,1,57,FUKUI,chubu,刈込池,36.0678666649768,136.727442815401,,,0,,,,1,,,,0,8,31,11,4,8
26014,1,60,SHIGA,kinki,家族旅行村ビラデスト今津,35.455731239471,135.998054075341,,,0,,,,,,,,0,8,31,11,8,17
25234,1,52,GIFU,chubu,奥矢作湖畔,35.2235697216294,137.426126532307,,,0,1,,,,,,,0,8,31,11,13,11
24108,1,41,TOCHIGI,kanto,塩原温泉,36.969172137896,139.833975402723,1,,0,1,,,1,,,,0,8,31,11,2,18
25511,,55,TOYAMA,chubu,弥陀ヶ原,36.5675104809601,137.557131759761,,,0,,,,,1,,,1,9,15,9,28,9
26107,1,60,SHIGA,kinki,名勝玄宮園,35.2779168521155,136.254334751764,,,1,,,,,1,1,,0,9,10,11,23,12
24819,1,48,NAGANO,chubu,黒姫高原,36.8267653638384,138.161392697141,1,,0,1,,,,1,,,0,8,31,10,27,17
26421,1,64,NARA,kinki,橿原神宮,34.4855920370555,135.790294689135,,,0,,,,,1,1,,0,8,31,11,25,7
23104,1,31,AOMORI,tohoku,岩木山,40.6554744448769,140.302734078792,1,,0,1,,,,1,,,0,9,15,10,15,23
23620,1,36,FUKUSHIMA,tohoku,高清水自然公園,37.2787401146127,139.581941512007,1,,0,,,,,,,,0,8,31,10,27,10
21208,1,12,HOKKAIDO,hokkaido,富良野麓郷周辺,43.3061527340289,142.528909748128,1,,0,1,,,,,,,0,9,15,10,17,10
24002,1,40,IBARAKI,kanto,袋田の滝,36.7647481055974,140.407208250706,1,,1,1,,,1,,,,0,8,31,11,12,13
26717,,67,HIROSHIMA,chugoku,三段峡(奥・二段滝・三段滝),34.6137004512676,132.201722301428,1,,0,,,,1,,,,0,8,31,11,5,12
26607,1,66,OKAYAMA,chugoku,井倉峡,34.9273186293847,133.524800191015,,,0,,,,1,,,,0,8,31,11,9,13
24815,1,48,NAGANO,chubu,阿寺渓谷,35.6866496234914,137.598366585679,1,,0,1,,,1,1,,,0,9,1,11,4,13
24905,1,49,YAMANASHI,chubu,紅葉台,35.4840045302938,138.679238348129,1,,0,,,,,,,,0,8,31,11,8,16
24446,1,44,TOKYO,kanto,砧公園,35.6306383957249,139.618695196064,,,0,,,,,1,,,0,8,31,11,25,15
26707,1,67,HIROSHIMA,chugoku,三段峡,34.6137004512676,132.201722301428,1,,0,,,,1,,,,0,8,31,11,5,17
26002,1,60,SHIGA,kinki,奥琵琶湖パークウェイ,35.4527668363247,136.147551802921,1,,0,1,,,,,,,0,8,31,11,18,10
25309,1,53,MIE,chubu,上野公園(伊賀市),34.7705239504461,136.127894681577,1,,0,,,,,1,1,,0,9,10,11,19,12
24109,1,41,TOCHIGI,kanto,日塩もみじライン,36.9398831528042,139.751586413283,1,,0,1,,1,1,,,,0,8,31,10,30,17
24005,1,40,IBARAKI,kanto,御前山(東登山口周辺),36.5450441531044,140.330598224736,1,,0,1,,,1,,1,,0,9,7,11,20,11
26718,1,67,HIROSHIMA,chugoku,尾関山公園,34.8143233417259,132.840075238297,1,,1,,,,,1,,,0,8,31,11,12,9
26135,1,61,KYOTO,kinki,宝泉院,35.1213379282171,135.833853796565,1,,0,,,,1,,1,,0,8,31,11,17,11
28113,1,81,YAMAGUCHI,chugoku,覚苑寺,34.0004016938042,130.982238374137,1,,0,,,,,,1,,0,8,31,11,19,11
25132,1,51,AICHI,chubu,岡崎公園,34.9563067978742,137.158837532374,,,1,,,,,1,1,1,0,8,31,11,20,4
24866,1,48,NAGANO,chubu,御岳ロープウェイ,35.9018515947316,137.537072636942,,,0,1,,1,,,,,0,8,31,10,14,19
28802,1,88,KAGOSHIMA,kyusyu,霧島,31.8973700233718,130.832357031118,1,,0,1,,,,,,,0,8,31,11,5,28
27105,1,71,TOKUSHIMA,chugoku,大歩危・小歩危,33.8932493734498,133.757107923799,,,0,1,,,,1,,,0,8,31,11,11,13
24307,1,43,SAITAMA,kanto,釜伏山周辺,36.0928683712227,139.143523371551,1,,0,1,,,,,,,0,8,31,11,20,19
28209,1,82,FUKUOKA,kyusyu,瀬板の森公園,33.8603667457874,130.728152386266,,,0,,,,,1,1,,0,9,1,11,23,13
23311,1,33,IWATE,tohoku,貎鼻渓,38.9892956135684,141.255407517815,1,,0,,,,,,1,,0,8,31,10,29,12
26809,1,69,TOTTORI,chugoku,滝山公園,35.1868732171823,133.381870221146,,,0,1,,,1,1,,,0,8,31,11,8,11
24214,1,42,GUNMA,kanto,少林山達磨寺,36.3292673526094,138.957719451119,1,,0,,,,,1,1,,0,8,31,11,17,23
27407,1,74,KOUCHI,chugoku,大荒の滝,33.7089943962104,133.809282882934,,,0,,,,1,,,1,0,9,3,11,14,11
24803,1,48,NAGANO,chubu,赤沢自然休養林,35.7274556136751,137.623233588674,1,,0,,,,,1,,,0,8,31,10,21,13
24507,,45,CHIBA,kanto,養老渓谷(粟又の滝),35.219200403104,140.182451014165,1,,1,,,,1,,,,0,8,31,12,2,9
26008,1,60,SHIGA,kinki,湖東三山百済寺(国史跡),35.126943872755,136.288954717974,1,,1,,,,,,1,,0,9,4,11,13,20
24434,1,44,TOKYO,kanto,浜離宮恩賜庭園,35.6599383737597,139.764481173248,,,0,,,,,1,1,,0,8,31,11,30,14
28124,1,81,YAMAGUCHI,chugoku,毛利氏庭園,34.0627156100553,131.587417294524,,,0,,,,,,,,0,8,31,11,16,17
25202,1,52,GIFU,chubu,両界山横蔵寺,35.5533947699152,136.561261748371,1,,1,,,,,,,,0,8,31,11,13,11
23623,,36,FUKUSHIMA,tohoku,あだたら渓谷奥岳自然遊歩道,37.6249199654352,140.322057433078,1,,0,,,,1,,,,0,8,31,10,28,10
28122,1,81,YAMAGUCHI,chugoku,東光寺,34.412967577625,131.425821383398,1,,0,,,,,,,,0,8,31,11,20,14
25428,1,54,NIIGATA,chubu,秋山郷(新潟側),36.9148622914864,138.634321624558,1,,0,1,,,1,,,,0,8,31,10,31,12
25311,,53,MIE,chubu,御在所岳（湯の山温泉）,35.0167528721157,136.446417670156,1,,0,,,1,,1,,,0,8,31,11,16,12
23605,1,36,FUKUSHIMA,tohoku,塔のへつり,37.2741789479444,139.906354092661,1,,0,,,,,,,,0,8,31,11,1,13
21216,,12,HOKKAIDO,hokkaido,大雪山旭岳(旭岳温泉街),43.6484276042991,142.789188256438,1,,0,,,,,,,,0,9,15,10,1,9
23304,1,33,IWATE,tohoku,松川渓谷,39.8718795005696,140.925285774184,1,,0,1,,,,1,,,0,8,31,10,20,12
24205,1,42,GUNMA,kanto,谷川岳,36.8181432698792,138.949698545514,1,,0,1,,1,,,,,0,9,15,10,13,27
28220,1,82,FUKUOKA,kyusyu,油山市民の森,33.5184808395068,130.37339837645,,,0,,,,1,1,1,1,0,8,31,11,12,10
25405,1,54,NIIGATA,chubu,大源太キャニオン,36.9172132601501,138.890031576068,1,,0,,,,1,,,,0,8,31,11,2,12
24126,1,41,TOCHIGI,kanto,箱の森プレイパーク,36.9831871382101,139.810986409924,1,,0,,,,,1,,1,0,8,31,11,4,20
26415,,64,NARA,kinki,吉野山(上千本),34.3561220485956,135.87173565211,1,,0,1,,1,,1,,,0,8,31,11,14,12
25712,1,57,FUKUI,chubu,花筐公園,35.9200287487776,136.239128874564,1,,1,,,,,1,,,0,8,31,11,14,12
26325,1,63,HYOGO,kinki,有馬温泉瑞宝寺公園,34.7953550505058,135.255607836573,1,,0,,,1,,,1,,0,8,31,11,12,14
23322,1,33,IWATE,tohoku,厳美渓,38.9441906469023,141.048056551533,1,,0,1,,,1,1,1,,0,8,31,11,4,11
21501,1,15,HOKKAIDO,hokkaido,朱鞠内湖畔,44.3057335720768,142.180882568419,1,,0,1,,,,,,,0,8,31,10,13,10
27319,,73,EHIME,chugoku,石鎚山(山頂付近),33.7682514697902,133.114310004678,1,,0,,,1,,,,,0,8,31,10,14,7
28230,1,82,FUKUOKA,kyusyu,城山公園(猫尾城址),33.2166618461159,130.682678277789,,,0,,,,,,,,,,,,,
26903,1,68,SHIMANE,chugoku,堀庭園,34.4961405283031,131.723037353528,1,,1,,,,1,,,,0,8,31,11,11,11
23616,1,36,FUKUSHIMA,tohoku,福満虚空藏菩薩圓藏寺,37.5330430534922,139.724729533773,1,,1,,,,,,,,0,8,31,11,3,15
23306,1,33,IWATE,tohoku,平庭高原,40.0861613905441,141.505284698502,1,,0,1,,,,1,,,0,8,31,10,17,12
28319,1,83,OITA,kyusyu,並石ダムグリーンランド,33.5645106870105,131.569161207674,,,0,1,,,,1,,,0,8,31,11,22,14
28219,1,82,FUKUOKA,kyusyu,友泉亭公園,33.5627078326981,130.376220383976,1,,0,,,,,,,,0,9,8,11,22,15
21403,1,14,HOKKAIDO,hokkaido,北海道庁旧本庁舎前庭,43.0639418962038,141.348028433324,,,1,,,,,1,1,,0,8,31,11,1,11
28205,1,82,FUKUOKA,kyusyu,勝山公園(小倉城),33.8819597247151,130.873426368726,,,0,,,,,1,1,,0,8,31,11,19,13
26712,1,67,HIROSHIMA,chugoku,宮島,34.294204484732,132.324080223467,,,0,,,1,,,,,0,8,31,11,14,11
24506,,45,CHIBA,kanto,養老渓谷(筒森もみじ谷),35.2193704065128,140.152178020062,1,,0,,,,,1,,,0,8,31,12,2,9
21207,1,12,HOKKAIDO,hokkaido,十勝岳,43.4467426578921,142.6483912374,1,,0,1,,,,,,,1,9,15,9,25,11
25017,1,50,SHIZUOKA,chubu,丸火自然公園,35.2324695681158,138.724889294383,,,0,,,,,1,,,0,8,31,11,19,12
24111,1,41,TOCHIGI,kanto,竜頭ノ滝,36.7576582201223,139.451469437042,1,,0,,,,1,1,1,,0,8,31,10,13,13
28102,1,81,YAMAGUCHI,chugoku,長門峡,34.3091285745426,131.576014341387,1,,0,,,,1,,1,,0,8,31,11,13,9
25127,1,51,AICHI,chubu,普門寺,34.7450947965392,137.472718438185,,,0,,,,,,,1,0,8,31,11,30,10
23224,1,32,AKITA,tohoku,千秋公園,39.7216966274959,140.124367907408,,,0,,,,,1,1,,0,8,31,11,10,18
28817,1,88,KAGOSHIMA,kyusyu,清水岩屋公園,31.4181121413704,130.42527501129,1,,0,,,,,1,1,,0,8,31,11,24,17
25012,1,50,SHIZUOKA,chubu,修善寺温泉,34.9697055901095,138.926047210108,1,,1,1,,,,1,1,1,0,8,31,11,26,9
23516,1,35,YAMAGATA,tohoku,山形蔵王,38.1708068588012,140.418096522349,1,,0,1,,1,1,,,,0,9,15,10,7,30
24118,1,41,TOCHIGI,kanto,もみじ谷(織姫公園),36.3422462925395,139.445685359835,,,0,,,,,1,,,0,8,31,11,21,12
24924,1,49,YAMANASHI,chubu,富士スバルライン,35.4472435276736,138.755683327131,,,0,,,,,,,,0,8,31,10,21,20
23603,,36,FUKUSHIMA,tohoku,裏磐梯(五色沼付近),37.6528989898336,140.079451487061,,,0,,,,,,,,0,8,31,10,27,14
25719,1,57,FUKUI,chubu,足羽神社,36.0584157298046,136.209327906241,,,1,1,,,,1,1,,0,8,31,11,10,12
25307,1,53,MIE,chubu,お城公園,34.7180639142307,136.507102605671,,,0,,,,,1,,,0,8,31,11,18,14
25027,1,50,SHIZUOKA,chubu,井川湖,35.210628629645,138.228259382964,1,,0,1,,,,1,,,0,8,31,11,11,9
26324,1,63,HYOGO,kinki,赤西渓谷,35.2184510732225,134.510008040778,1,,0,1,,,,,,,0,9,10,11,7,15
25207,1,52,GIFU,chubu,養老公園,35.2829708159182,136.549494700495,1,,0,1,,,1,1,1,,0,8,31,11,19,16
24813,1,48,NAGANO,chubu,奥裾花自然園,36.7918633905662,137.990207722542,1,,0,1,,,1,,,,0,8,31,10,23,12
27107,1,71,TOKUSHIMA,chugoku,殿川内渓谷,33.9115842975717,134.3709558268,1,,0,1,,,1,,,,0,9,8,11,3,10
26611,1,66,OKAYAMA,chugoku,近水園,34.7312762366525,133.801192067819,1,,0,,,,,,,,0,8,31,11,14,10
25112,1,51,AICHI,chubu,久屋大通公園,35.1737397913105,136.907791616669,,,0,,,,,,,,0,9,1,11,19,18
22302,1,23,HOKKAIDO,hokkaido,大沼公園,41.9839161699541,140.67290631276,1,,0,1,,,,1,1,1,0,8,31,10,26,10
25503,1,55,TOYAMA,chubu,庄川峡船の旅(庄川遊覧船),36.5539835503094,137.008702857897,1,,0,,,,,,,,0,8,31,11,7,15
23112,,31,AOMORI,tohoku,八甲田ロープウェー(山麓付近),40.6808863725754,140.831588973523,1,,0,,,1,,1,,,0,9,15,10,23,6
26710,1,67,HIROSHIMA,chugoku,もみのき森林公園,34.479534474641,132.17718128038,1,,0,1,,,,1,,,0,8,31,11,1,17
25034,1,50,SHIZUOKA,chubu,法多山尊永寺,34.7377107392094,137.977244345157,1,,0,,,,,1,1,1,0,8,31,11,30,14
25705,1,57,FUKUI,chubu,永平寺,36.0556747123716,136.355416879724,1,,0,,,,1,,,,0,8,31,11,12,10
23223,1,32,AKITA,tohoku,素波里峡,40.331710510738,140.220958022539,1,,0,1,,,1,1,,1,0,8,31,10,28,14
23210,1,32,AKITA,tohoku,法体の滝,39.1079417285522,140.159275768376,1,,0,,,,1,1,,1,0,8,31,10,26,14
27401,1,74,KOUCHI,chugoku,中津渓谷,33.5609845001069,133.129708965766,1,,0,,,,1,,,,0,8,31,11,10,8
26608,1,66,OKAYAMA,chugoku,特別史跡旧閑谷学校,34.7977541739693,134.230208009414,1,,1,1,,,,1,,,0,9,9,11,10,19
25011,1,50,SHIZUOKA,chubu,八丁池,34.8460136074534,138.960976181877,1,,0,,,,,,,,0,8,31,11,10,8
24224,,42,GUNMA,kanto,谷川岳(天神平),36.8181432698792,138.949698545514,1,,0,,,1,,,,,0,9,15,10,14,13
28103,1,81,YAMAGUCHI,chugoku,石柱渓,34.2488626350271,131.15988339317,1,,0,,,,1,,,,0,8,31,11,16,9
27308,1,73,EHIME,chugoku,成川渓谷,33.2185676132004,132.623219985598,1,,0,,,,,,,,,,,11,8,12
26001,1,60,SHIGA,kinki,大本山永源寺,35.080543876687,136.319886704062,1,,1,1,,,,1,,1,0,8,31,11,11,18
24823,1,48,NAGANO,chubu,上高地(河童橋付近),36.2488625244707,137.637803683814,1,,0,,,,,,,,0,9,1,10,19,15
26220,1,62,OSAKA,kinki,服部緑地,34.7788295849401,135.48385311431,,,0,,,,,1,1,,0,8,31,11,21,17
26204,1,61,KYOTO,kinki,高雄,35.0548219582641,135.673888812106,,,0,,,,,,,,0,8,31,11,13,15
23105,1,32,AKITA,tohoku,八幡平,39.9568594947096,140.854764807472,1,,0,1,,,,,,,0,9,15,10,7,31
28125,1,81,YAMAGUCHI,chugoku,漢陽寺,34.235577556101,131.815127291361,1,,0,,,,,,,,0,8,31,11,11,10
26205,1,62,OSAKA,kinki,万博記念公園,34.8083550152147,135.532544791525,1,,0,,,,1,1,1,,0,8,31,11,15,18
25420,1,54,NIIGATA,chubu,杜々の森名水公園,37.3869871699256,138.973105651853,,,0,,,,,1,,,0,8,31,11,1,14
23323,1,33,IWATE,tohoku,安比高原,40.0023704722339,140.970604793151,1,,0,1,,1,,1,,,0,9,15,10,16,16
25308,1,53,MIE,chubu,香落渓,34.5684569850225,136.115910647484,1,,0,1,,,1,1,1,,0,8,31,11,12,15
26215,1,62,OSAKA,kinki,大阪府営大泉緑地,34.566473164578,135.524574366304,,,0,,,,,1,,,0,8,31,11,18,14
23101,1,31,AOMORI,tohoku,十和田湖畔(休屋周辺),40.428294407636,140.898377902558,1,,0,1,,,,1,1,,0,8,31,10,27,10
28233,1,82,FUKUOKA,kyusyu,藤江氏魚楽園,33.5599047805062,130.80607032062,1,,0,1,,,,1,,1,,,,11,15,9
24810,1,55,TOYAMA,chubu,立山黒部アルペンルート,36.5864834881248,137.472469779077,1,,0,,,1,1,1,,,1,9,15,9,18,38
24105,1,41,TOCHIGI,kanto,いろは坂,36.7465002148203,139.512064423144,1,,0,1,,1,,,1,,0,8,31,10,27,17
24607,1,46,KANAGAWA,kanto,瑞泉寺,35.3267724536192,139.575350150085,,,0,,,,1,1,,,0,8,31,12,8,20
25413,1,54,NIIGATA,chubu,公益財団法人中野邸記念館「四季の庭・泉恵園」,37.7501160907848,139.113739696837,1,,0,,,,,,,1,0,9,7,11,10,12
26708,1,67,HIROSHIMA,chugoku,耕三寺博物館(耕三寺),34.3037733897546,133.090277104468,,,0,,,,,1,1,1,0,8,31,11,19,16
25515,1,55,TOYAMA,chubu,五箇山の合掌造り集落,36.4011795914027,136.879520851809,1,,0,1,,,,1,1,,0,8,31,11,4,14
24814,1,48,NAGANO,chubu,開田高原,35.937986577329,137.631669626326,1,,0,1,,,1,1,,,0,8,31,10,28,15
24306,1,43,SAITAMA,kanto,名栗湖(有間ダム),35.8727024052024,139.177227324579,1,,0,1,,,,1,,,0,8,31,11,14,19
23307,1,33,IWATE,tohoku,早池峰国定公園,39.5584140862018,141.489002820704,1,,0,1,,,1,,,,1,9,12,9,20,14
23310,1,33,IWATE,tohoku,仙人峠,39.2917945060193,141.698986487785,,,0,1,,,,1,1,,0,8,31,10,31,11
26134,1,61,KYOTO,kinki,常寂光寺,35.0200209645089,135.668959806583,1,,0,,,,1,,1,,0,8,31,11,18,12
23622,1,36,FUKUSHIMA,tohoku,尾瀬(ブナ平周辺),36.97867219766,139.321274504675,1,,0,1,,,1,,,,0,8,31,10,12,11
26617,1,66,OKAYAMA,chugoku,神庭の滝,35.1181331911295,133.679053159733,1,,0,,,,1,,,,0,9,7,11,13,9
25419,1,54,NIIGATA,chubu,魚沼スカイライン,37.0728512415046,138.824821618799,1,,0,1,,,,,,,0,8,31,11,1,12
24319,1,43,SAITAMA,kanto,秩父ミューズパーク,35.9935703990994,139.051963370681,,,0,,,,,1,,,0,8,31,10,28,19
24305,1,43,SAITAMA,kanto,鎌北湖,35.916393384399,139.290416310943,,,0,,,,,1,,,0,8,31,11,25,11
22102,1,21,HOKKAIDO,hokkaido,登別温泉,42.4929980206824,141.145375335007,1,,0,,,,,,,,0,8,31,10,21,13
28702,1,87,MIYAZAKI,kyusyu,高千穂峡,32.7022378484093,131.300664097592,,,0,1,,,1,1,,,0,8,31,11,16,12
26705,1,67,HIROSHIMA,chugoku,山野峡,34.6809222992106,133.353385131292,1,,0,1,,,1,1,,,0,8,31,11,10,14
27214,1,72,KAGAWA,chugoku,特別名勝　栗林公園,34.3293832703665,134.044549954796,1,,1,,,,1,1,1,1,0,8,31,11,16,16
24213,1,42,GUNMA,kanto,岩櫃山,36.5568093329843,138.796039524958,1,,0,,,,1,,,,0,8,31,11,5,15
23505,1,35,YAMAGATA,tohoku,赤芝峡,38.0763519605531,139.719333643348,,,0,,,,,1,,,0,8,31,11,2,9
27216,1,72,KAGAWA,chugoku,屋島,34.3578662593367,134.098871951011,,,0,1,,,,1,,,0,8,31,11,12,19
23321,1,33,IWATE,tohoku,荒川高原,39.4744844857074,141.602560546564,,,0,,,,,,,,0,8,31,10,27,11
24930,1,49,YAMANASHI,chubu,本栖湖,35.4631415428174,138.602646358722,,,0,,,,,,,,0,8,31,11,4,11
25232,1,52,GIFU,chubu,中山七里,35.7820196514601,137.231227670399,1,,0,1,,,,1,,,0,8,31,11,12,13
26326,1,63,HYOGO,kinki,城崎温泉(東山公園),35.6278509707332,134.814385066589,1,,0,,,,,,,,0,8,31,11,18,13
23106,1,31,AOMORI,tohoku,薬研渓流,41.382277221327,141.068185084667,1,,0,1,,,1,1,,1,,,,10,30,11
25411,1,54,NIIGATA,chubu,弥彦公園もみじ谷,37.6987831345391,138.829032741862,1,,0,,,,,1,,,0,8,31,11,8,12
21206,1,12,HOKKAIDO,hokkaido,天人峡温泉,43.619221611288,142.774673252314,1,,0,1,,,1,1,,,0,8,31,10,13,9
25601,1,56,ISHIKAWA,chubu,那谷寺,36.3134366621848,136.420406917638,1,,0,1,,,,,,,0,8,31,11,10,18
26501,1,65,WAKAYAMA,kinki,護摩壇山,34.0572871330961,135.567476651752,1,,0,1,,,1,,,,0,8,31,11,3,11
25401,1,54,NIIGATA,chubu,清津峡,36.972445099942,138.749796460656,1,,0,1,,,,1,,,0,8,31,11,3,14
23225,1,32,AKITA,tohoku,角館,39.5899845938045,140.571429786768,1,,0,1,,,,1,1,,0,8,31,11,8,13
28514,1,85,SAGA,kyusyu,御船山楽園,33.1810499321472,130.017243367657,1,,0,,,,,,,1,0,9,10,11,16,20
25426,1,54,NIIGATA,chubu,三国川ダム・しゃくなげ湖・五十沢渓谷,37.0536442236314,138.999383581467,1,,0,1,,,,,,,0,8,31,11,2,14
25105,1,51,AICHI,chubu,くらがり渓谷,34.9380667725995,137.400076485635,,,0,,,,1,,,1,0,8,31,11,23,12
24125,1,41,TOCHIGI,kanto,古峯神社　古峯園,36.6548312289486,139.526399402962,1,,0,,,,1,1,,,0,8,31,11,5,13
24208,1,42,GUNMA,kanto,妙義山,36.2989723826639,138.748798485209,1,,0,1,,,,1,1,,0,8,31,11,12,17
28711,1,87,MIYAZAKI,kyusyu,尾前渓谷,32.4936999064723,131.073176095683,,,0,1,,,1,,,,0,8,31,11,9,11
24443,1,44,TOKYO,kanto,駒沢オリンピック公園,35.6279393912203,139.661691187306,,,0,,,,,1,,,0,8,31,11,21,16
24103,1,41,TOCHIGI,kanto,龍王峡,36.8640831705008,139.713279406298,1,,0,1,,,1,,1,,0,8,31,11,8,13
25218,1,52,GIFU,chubu,飛騨美濃せせらぎ街道,36.0142646331995,137.062270744711,1,,0,1,,,1,,,,0,8,31,10,30,17
27209,,72,KAGAWA,chugoku,寒霞渓(紅雲亭),34.5085652117175,134.296404945671,,,0,1,,1,,1,,1,0,8,31,11,14,16
28503,1,85,SAGA,kyusyu,大興善寺,33.4292298375963,130.495846342701,1,,1,,,,,,,,0,8,31,11,16,17
26719,1,67,HIROSHIMA,chugoku,縮景園,34.3997154510667,132.467496220395,,,0,,,,,1,1,1,0,9,8,11,18,18
26802,1,68,SHIMANE,chugoku,三瓶山,35.1333159791593,132.633577419176,1,,0,,,,,,,,0,8,31,11,4,13
26308,1,63,HYOGO,kinki,神戸布引ハーブ園／ロープウェイ,34.7044270725669,135.193889830578,1,,0,,,1,1,1,1,,0,8,31,11,17,23
24452,1,44,TOKYO,kanto,北の丸公園,35.6915343699614,139.749681181793,,,0,,,,1,1,1,,0,8,31,11,30,12
23418,,34,MIYAGI,tohoku,蔵王エコーライン(駒草平),38.1355498589026,140.467686505224,1,,0,1,,,1,,,,0,8,31,10,13,10
27303,1,73,EHIME,chugoku,小田深山渓谷,33.5330953082302,132.893386580186,,,0,,,,,,,,0,8,31,11,1,10
23402,1,34,MIYAGI,tohoku,宮城蔵王,38.137698858021,140.471860504811,1,,0,1,,,1,,,,0,8,31,10,14,39
23517,,35,YAMAGATA,tohoku,山形蔵王(中腹付近),38.1708778601769,140.406697524667,1,,0,1,,1,1,,,,0,9,15,10,13,14
24309,1,43,SAITAMA,kanto,宝登山,36.093067377309,139.091629381505,,,1,,,1,,1,1,,0,8,31,11,17,16
26303,1,63,HYOGO,kinki,東山公園(たつの市),34.9157041157286,134.555732976892,,,0,,,,1,1,,,0,8,31,11,19,10
25306,1,53,MIE,chubu,岩倉峡,34.7794012490027,136.086037258047,1,,0,,,,,,,,0,9,10,11,14,12
24868,1,48,NAGANO,chubu,御射鹿池,36.0330804823533,138.292071521543,1,,0,1,,,,,,,0,8,31,10,30,16
24321,1,43,SAITAMA,kanto,武蔵嵐山渓谷,36.0330303628041,139.302749330008,,,0,,,,,,,,0,8,31,11,20,14
26402,1,64,NARA,kinki,奈良公園,34.6848019983958,135.842173715817,,,0,,,,1,1,1,,0,8,31,11,14,18
23222,1,32,AKITA,tohoku,乳頭温泉郷,39.8001885294861,140.794029786021,1,,0,1,,,,1,,,0,8,31,10,22,10
23325,1,33,IWATE,tohoku,北上展勝地,39.2749825794021,141.126654604352,,,0,,,,,1,,,0,8,31,11,10,5
26140,1,61,KYOTO,kinki,京都御苑,35.0241419526504,135.762155791202,,,0,,,,,,1,,0,8,31,11,20,3
23219,,32,AKITA,tohoku,八幡平(大沼・国道341号沿い),39.9835674969114,140.800621824639,1,,0,1,,,,,,,0,9,15,10,18,10
25314,1,53,MIE,chubu,聖宝寺,35.1756048435026,136.466807695483,,,0,1,,,1,,,,0,8,31,11,20,10
23508,1,35,YAMAGATA,tohoku,黒沢峠,38.0316209597255,139.78888462048,,,0,,,,,,,,0,8,31,11,2,10
25404,1,54,NIIGATA,chubu,奥只見ダム,37.1539481754679,139.255676551368,1,,0,1,,,,1,,,0,8,31,10,25,15
24402,1,44,TOKYO,kanto,奥多摩湖畔,35.7731924376798,139.046374331311,1,,0,1,,,,1,,,0,8,31,11,13,17
24438,1,44,TOKYO,kanto,井の頭恩賜公園,35.7008283886627,139.574296217257,,,0,,,,,1,1,,0,8,31,12,2,13
24927,1,49,YAMANASHI,chubu,西沢渓谷,35.8613894567351,138.755272402629,1,,0,,,,1,,,,0,8,31,10,31,13
25506,1,55,TOYAMA,chubu,二上山,36.7899685105505,137.014821902878,1,,0,1,,,,,,,0,8,31,11,13,13
25608,1,56,ISHIKAWA,chubu,荒俣峡,36.3056136553574,136.486387904298,1,,0,,,,1,,,,0,8,31,11,11,12
25430,1,54,NIIGATA,chubu,苗場ドラゴンドラ,36.8021954484576,138.780327111304,1,,0,1,,1,,1,,,0,9,4,10,20,24
25410,1,48,NAGANO,chubu,秋山郷(長野側),36.8525033027976,138.628432613608,1,,0,1,,,1,1,,,0,8,31,10,26,12
24230,1,42,GUNMA,kanto,碓氷第3橋梁(めがね橋),36.3580703785968,138.698318505917,,,0,1,,,,,,,0,8,31,11,10,11
28604,1,86,KUMAMOTO,kyusyu,下城の大イチョウ,33.15045081094,131.05505921144,1,,1,1,,,1,1,,1,0,8,31,11,5,9
26118,1,61,KYOTO,kinki,正法寺(和束),34.792728973552,135.902906724737,,,0,,,,,,,,0,8,31,11,16,13
25016,1,50,SHIZUOKA,chubu,目の霊山　油山寺,34.7855447358621,137.936047361115,1,,1,1,,,1,1,,1,0,8,31,12,1,14
24112,1,41,TOCHIGI,kanto,華厳ノ滝,36.7380012174738,139.502115423462,1,,0,,,,1,,1,,0,8,31,10,26,12
24315,1,43,SAITAMA,kanto,国営武蔵丘陵森林公園,36.0862733458796,139.368504327199,1,,1,,,,,1,1,1,0,8,31,11,23,15
21411,1,14,HOKKAIDO,hokkaido,支笏湖,42.7720459388096,141.403083347701,1,,0,1,,,,1,,,0,8,31,10,22,10
24907,1,49,YAMANASHI,chubu,猿橋,35.6157724725154,138.980208315231,,,1,,,,,,1,,0,8,31,11,16,12
24310,1,43,SAITAMA,kanto,蓑山(美の山),36.0571813809566,139.113064370769,1,,0,1,,,,1,,,0,8,31,11,21,13
23209,1,32,AKITA,tohoku,宝仙湖,39.8300905441479,140.63641482533,1,,0,1,,,,,,,0,8,31,10,26,8
25129,1,51,AICHI,chubu,徳川園,35.1842957866618,136.932173614225,,,1,,,,1,1,1,,0,8,31,11,21,12
24839,1,48,NAGANO,chubu,寝覚の床,35.7725295969601,137.699867582955,1,,0,,,,,,,,0,8,31,11,5,11
23202,1,32,AKITA,tohoku,白神藤里,40.3090155061411,140.287164003713,1,,0,1,,,1,1,,,0,8,31,10,26,15
28108,1,81,YAMAGUCHI,chugoku,木谷峡,34.2700595388552,131.913068282649,1,,0,1,,,1,1,,,0,8,31,11,9,9
24016,1,40,IBARAKI,kanto,愛宕山,36.2912722067588,140.25211519318,,,0,1,,,,,,,0,9,8,11,21,9
23204,1,32,AKITA,tohoku,田沢湖高原,39.7790715364746,140.767514786962,1,,0,1,,,,1,,,0,8,31,10,26,7
21210,,12,HOKKAIDO,hokkaido,十勝岳(白銀荘周辺),43.4305436619297,142.63909223542,1,,0,,,,,,,,0,9,15,9,25,8
26114,1,61,KYOTO,kinki,圓光寺,35.0450919450497,135.797078788977,,,0,,,,,,,,0,8,31,11,17,16
26222,1,62,OSAKA,kinki,勝尾寺,34.8651370109131,135.491628808874,,,1,1,,,,1,1,,0,8,31,11,15,19
28706,1,87,MIYAZAKI,kyusyu,母智丘・関之尾県立自然公園,31.7621540256268,130.985984986614,1,,0,,,,,,,1,0,9,6,11,21,9
25614,1,56,ISHIKAWA,chubu,手取峡谷,36.3410856312822,136.635031884418,1,,0,1,,,1,,,,0,9,14,11,11,12
25414,1,54,NIIGATA,chubu,松雲山荘,37.3597382268979,138.545232379978,1,,1,,,,,1,1,1,0,8,31,11,12,12
24448,1,44,TOKYO,kanto,都立武蔵野公園,35.6890283970482,139.519701225613,,,0,,,,,1,1,,0,8,31,11,27,12
24304,1,43,SAITAMA,kanto,月の石もみじ公園(上長瀞),36.0881053751561,139.117119375716,,,1,,,,,1,1,1,0,8,31,11,18,16
26207,1,62,OSAKA,kinki,大阪城公園,34.686821035379,135.528749770191,,,0,,,,,1,,,0,8,31,11,15,18
23609,1,36,FUKUSHIMA,tohoku,田子倉湖,37.3114101449444,139.284730576477,1,,0,1,,,1,1,,,0,8,31,10,30,12
23633,1,36,FUKUSHIMA,tohoku,福島県立霞ヶ城公園,37.600359956867,140.428937406826,,,0,1,,,1,1,,1,0,8,31,11,12,15
28212,1,82,FUKUOKA,kyusyu,ます渕ダム,33.763179746522,130.838646352357,,,0,,,,,,,,0,9,3,11,20,8
23309,1,33,IWATE,tohoku,錦秋湖畔,39.3008496101866,140.841737669041,1,,0,1,,,,1,1,,0,8,31,10,27,11
28602,1,86,KUMAMOTO,kyusyu,五家荘,32.5000619258702,130.901230121946,,,0,1,,,1,,,,0,8,31,11,7,14
24919,1,49,YAMANASHI,chubu,丹波渓谷,35.7949704530728,138.883193366247,1,,0,1,,,,,,,0,8,31,11,5,13
24432,1,44,TOKYO,kanto,蘆花恒春園,35.6617573909905,139.612823202798,,,0,,,,,,,,0,8,31,12,8,13
23602,1,36,FUKUSHIMA,tohoku,霊山,37.7685418964498,140.687188387804,,,0,,,,,,,,0,8,31,11,2,12
28513,1,85,SAGA,kyusyu,大公孫樹(大イチョウ),33.1931799440496,129.905185385785,1,,1,,,,,1,1,1,0,8,31,11,20,7
24212,1,42,GUNMA,kanto,猿ヶ京温泉(赤谷湖付近),36.7143920756223,138.894925348497,1,,0,,,,,1,1,,0,8,31,11,5,13
27102,1,71,TOKUSHIMA,chugoku,剣山,33.8535943395938,134.094168862005,1,,0,1,,1,,,,,0,8,31,10,21,19
23513,1,35,YAMAGATA,tohoku,小松渕,38.6099898130932,140.17004466209,1,,0,,,,,,,,0,8,31,10,26,15
24408,1,44,TOKYO,kanto,神宮外苑銀杏並木,35.6744483764077,139.719704184498,,,0,,,,,1,1,,0,8,31,11,28,13
24417,1,44,TOKYO,kanto,国営昭和記念公園,35.7111064074131,139.397549253029,,,0,,,,1,1,1,1,0,8,31,11,14,18
25516,1,55,TOYAMA,chubu,高岡古城公園,36.7486665165533,137.021477893554,1,,0,,,,,1,1,,0,8,31,11,12,13
26902,1,69,TOTTORI,chugoku,大山,35.3710991977209,133.540056676995,1,,0,1,,,,,1,1,0,8,31,10,31,18
24413,1,44,TOKYO,kanto,旧芝離宮恩賜庭園,35.6546383753658,139.758582173433,,,0,,,,,,,,0,9,14,12,3,13
26131,1,61,KYOTO,kinki,龍安寺,35.0336689563728,135.718236800554,,,0,,,,,,1,,0,8,31,11,21,17
23421,1,34,MIYAGI,tohoku,円通院,38.3712897458354,141.059789431905,1,,1,,,,,1,1,1,0,8,31,11,10,17
28312,1,83,OITA,kyusyu,岡城阯,32.9663847966708,131.403130127745,1,,0,,,,,,,,0,8,31,11,16,10
26508,1,65,WAKAYAMA,kinki,救馬渓観音,33.7139832052091,135.428159615841,1,,0,,,,1,,,,0,8,31,11,26,13
24505,1,45,CHIBA,kanto,清和県民の森,35.1745074306197,140.0094700398,,,0,1,,,1,1,,,0,8,31,11,27,12
24423,1,44,TOKYO,kanto,旧古河庭園,35.7422283615532,139.745980191653,1,,0,,,,1,1,,1,0,8,31,11,29,15
27402,1,74,KOUCHI,chugoku,べふ峡,33.7741788711526,134.028499441804,1,,0,,,,1,,,,0,8,31,11,8,11
26212,1,62,OSAKA,kinki,天野山金剛寺,34.4285570771982,135.529589723752,1,,0,,,,,,1,,0,9,1,11,17,9
23626,1,36,FUKUSHIMA,tohoku,磐梯吾妻スカイライン,37.7227079563487,140.25626046552,1,,0,1,,,,,,,0,9,15,10,8,28
26821,1,68,SHIMANE,chugoku,津和野城跡,34.462321527723,131.768710340254,1,,0,,,,,,,,0,8,31,11,11,10
27203,1,72,KAGAWA,chugoku,大窪寺,34.1914142727082,134.20680090341,1,,0,,,,,1,1,,0,8,31,11,5,17
24610,1,46,KANAGAWA,kanto,丹沢湖,35.4163974988678,139.048944266268,1,,0,1,,,,1,,,0,8,31,11,21,12
21901,1,19,HOKKAIDO,hokkaido,阿寒湖温泉,43.4384764699918,144.102560897005,1,,0,,,,1,1,,,0,9,15,10,15,9
28509,1,85,SAGA,kyusyu,西渓公園,33.257317912337,130.088920370908,1,,0,1,,,,,,,0,8,31,11,14,9
23520,1,35,YAMAGATA,tohoku,もみじ公園,38.2458618546871,140.344876552304,,,0,,,,,,,,0,9,14,11,13,14
27312,1,73,EHIME,chugoku,富郷渓谷,33.9037964041462,133.486391969307,,,0,1,,,1,,,,0,8,31,11,7,18
26814,1,68,SHIMANE,chugoku,島根県県民の森,35.0366633126252,132.799609286461,1,,0,1,,,,,,,0,8,31,11,5,13
26327,1,63,HYOGO,kinki,最上山公園もみじ山,35.0088731029923,134.538696996957,,,0,,,,,,1,1,0,8,31,11,17,12
27302,1,73,EHIME,chugoku,面河渓,33.7265524774881,133.104014998941,1,,0,1,,,,1,,1,0,8,31,11,2,12
24322,1,43,SAITAMA,kanto,大宮公園,35.9189113440684,139.631834245765,,,0,,,,,,1,,0,8,31,11,21,9
26223,1,62,OSAKA,kinki,大仙公園日本庭園,34.5600110616802,135.480611755631,,,1,,,,1,1,1,1,0,8,31,11,17,6
25425,1,54,NIIGATA,chubu,裏巻機渓谷,37.0356192317313,138.957888585961,,,0,,,,,,,,0,8,31,11,1,15
23632,1,36,FUKUSHIMA,tohoku,あづま総合運動公園,37.7218109438003,140.36155044423,1,,1,,,,,1,1,1,0,8,31,11,4,12
23635,1,36,FUKUSHIMA,tohoku,鶴ケ城公園,37.4879190364907,139.92987848433,1,,1,1,,,,1,1,,0,8,31,11,5,15
25423,1,54,NIIGATA,chubu,櫛形山脈,38.0213860058557,139.427461690002,1,,0,,,,,,,,0,8,31,11,5,13
27217,1,72,KAGAWA,chugoku,前山ダム,34.2224582718156,134.173206914482,1,,0,1,,,,,,1,0,8,31,11,14,17
26408,1,64,NARA,kinki,竜田公園,34.6021720266584,135.717645722489,1,,0,,,,,,1,,0,8,31,11,26,11
25220,1,52,GIFU,chubu,大矢田もみじ谷(大矢田神社),35.5558177326031,136.868389693884,1,,0,,,,,,,,0,8,31,11,19,9
26803,1,68,SHIMANE,chugoku,裏匹見峡,34.5477764799426,132.050646312646,1,,0,,,,,,,,0,8,31,11,8,15
23317,1,33,IWATE,tohoku,松川温泉,39.8702845011315,140.923014774313,1,,0,1,,,,1,,,0,8,31,10,19,12
21405,1,14,HOKKAIDO,hokkaido,大通公園,43.0598858969304,141.347774432352,,,0,,,,,1,,,0,8,31,10,28,11
23408,1,34,MIYAGI,tohoku,志波彦神社・鹽竈神社境内,38.3190667607191,141.012567431085,,,0,,,,,,1,,0,8,31,11,14,16
25020,1,50,SHIZUOKA,chubu,田貫湖周辺,35.3471275676449,138.560008345781,1,,0,1,,,,1,,,0,8,31,11,11,10
24611,1,46,KANAGAWA,kanto,箱根美術館,35.2480775286399,139.042657237386,1,,0,,,,1,,1,,0,8,31,11,17,18
26714,1,67,HIROSHIMA,chugoku,不動院,34.427045446451,132.471123224846,1,,0,,,,,,,,0,8,31,11,18,12
26410,1,64,NARA,kinki,正暦寺,34.6446820018238,135.868470704064,,,0,,,,,1,,,0,8,31,11,15,19
26606,1,66,OKAYAMA,chugoku,蒜山大山スカイライン,35.3256391699569,133.588774213696,1,,0,1,,,,1,,,0,8,31,11,4,15
24862,,48,NAGANO,chubu,志賀高原(蓮池付近),36.7195683418135,138.492494613824,1,,0,1,,,,1,1,,0,9,15,10,13,13
23403,1,34,MIYAGI,tohoku,栗駒山,38.9608746759707,140.788178608699,1,,0,1,,,,,,,0,9,15,10,8,22
25031,1,50,SHIZUOKA,chubu,白糸ノ滝,35.3127865703118,138.587549334463,,,0,1,,,1,,,,0,8,31,11,16,13
24439,1,44,TOKYO,kanto,名主の滝公園,35.7578263603995,139.732480197078,,,0,,,,1,,,,,,,12,7,12
24409,1,44,TOKYO,kanto,代々木公園,35.6715893795663,139.696712188417,,,0,,,,,1,1,,0,8,31,11,28,15
24811,1,48,NAGANO,chubu,雲場池,36.3514303882904,138.626663518252,1,,0,,,,,,1,1,0,8,31,10,31,12
23507,1,35,YAMAGATA,tohoku,最上峡,38.7555137964073,140.10193070604,1,,1,1,,,1,1,,,0,8,31,11,2,14
28126,1,81,YAMAGUCHI,chugoku,国宝瑠璃光寺五重塔,34.1901856050654,131.472910335179,1,,1,,,,,1,1,,0,9,6,11,12,13
24120,1,41,TOCHIGI,kanto,銀山平公園,36.6544542572622,139.410510183583,1,,0,1,,,1,,,,0,8,31,10,27,10
23401,1,34,MIYAGI,tohoku,鳴子峡,38.7296277282234,140.690743580775,1,,0,,,,,1,,,0,8,31,10,30,15
23103,1,31,AOMORI,tohoku,八甲田ロープウェー,40.6718883699806,140.863985964638,1,,0,,,1,,1,,,0,9,15,10,9,20
28401,1,84,NAGASAKI,kyusyu,雲仙(仁田峠),32.750385962518,130.284713254079,1,,0,1,,1,,1,,1,0,8,31,11,3,13
24231,1,42,GUNMA,kanto,宝徳寺,36.4527312886731,139.317270405316,,,1,,,,,,,1,0,8,31,11,23,8
23211,1,32,AKITA,tohoku,須川湖畔,38.9805276769703,140.752352620176,1,,0,1,,,,1,,,0,8,31,10,15,9
27117,1,71,TOKUSHIMA,chugoku,眉山公園,34.0672132530284,134.537518826722,,,0,1,,1,,1,,,0,8,31,11,17,11
25126,1,51,AICHI,chubu,白鳥庭園,35.125431800101,136.901361609045,,,1,,,,1,1,,,0,8,31,11,22,14
24605,1,46,KANAGAWA,kanto,芦ノ湖,35.2024105379022,139.030711231525,1,,0,1,,1,,1,,,0,8,31,11,13,12
24303,1,43,SAITAMA,kanto,岩畳,36.0948773741576,139.115703377241,,,0,,,,,1,1,1,0,8,31,11,18,15
24317,1,43,SAITAMA,kanto,トーベ・ヤンソンあけぼの子どもの森公園,35.8305793929334,139.34430228494,1,,1,,,,1,1,,,0,9,1,11,29,11
24418,1,44,TOKYO,kanto,等々力不動尊,35.6037673971307,139.646977185792,,,0,,,,1,,1,1,0,8,31,12,4,12
26329,1,63,HYOGO,kinki,書写山圓教寺,34.891313107389,134.656473955508,,,1,,,1,,,,1,0,8,31,11,17,12
25305,1,53,MIE,chubu,宇賀渓,35.1025738548993,136.472184681206,1,,0,1,,,1,,,,0,8,31,11,17,13
25501,1,55,TOYAMA,chubu,黒部峡谷トロッコ電車沿線,36.6970184470797,137.657402766246,1,,0,,,,,1,,,0,8,31,11,3,18
25402,1,54,NIIGATA,chubu,荒川峡もみじライン,38.0790519765416,139.585402670468,1,,0,1,,,,,,,0,8,31,11,5,12
26403,1,64,NARA,kinki,長谷寺,34.5359287248803,135.906831994985,,,0,,,,,,,1,0,8,31,11,18,17
24015,,40,IBARAKI,kanto,筑波山(山麓),36.2071622415884,140.079737211514,1,,1,1,,1,,,,,0,8,31,11,23,14
24209,,42,GUNMA,kanto,草津白根山(殺生河原),36.6259973493411,138.561816582718,,,0,,,,,,,,0,9,15,10,10,12
28215,1,82,FUKUOKA,kyusyu,清水寺本坊庭園,33.1525748753692,130.518935290365,1,,0,,,,,,,,0,8,31,11,21,9
23114,1,31,AOMORI,tohoku,酸ヶ湯温泉,40.650618375397,140.850306962714,1,,0,1,,1,,,,,0,9,15,10,15,11
24004,1,40,IBARAKI,kanto,竜神峡,36.6833881129598,140.465973223762,1,,0,,,,,1,,,0,8,31,11,15,14
23324,1,33,IWATE,tohoku,重湍渓,39.4474835013199,141.514402559461,,,0,,,,,,,,0,8,31,10,29,8
25014,1,50,SHIZUOKA,chubu,湯ケ島温泉　出会い橋,34.8887016038229,138.928335195466,1,,1,,,,,1,1,,0,8,31,11,26,12
24824,1,48,NAGANO,chubu,釈尊寺(布引観音),36.3305104206828,138.385766559803,1,,0,1,,,,,,,0,9,10,11,3,15
24801,1,48,NAGANO,chubu,志賀高原,36.70578734232,138.507661608297,1,,0,,,1,,1,,,0,9,15,10,9,19
24412,1,44,TOKYO,kanto,上野恩賜公園,35.712732363662,139.772179181269,,,0,,,,,1,1,,0,8,31,12,1,12
24833,1,48,NAGANO,chubu,白樺高原,36.1270324668086,138.288770539726,1,,0,1,,1,1,1,,,0,9,7,10,20,15
28707,1,87,MIYAZAKI,kyusyu,見立渓谷,32.7966178162593,131.452412091174,1,,0,,,,1,1,,1,0,8,31,11,12,10
26104,1,60,SHIGA,kinki,比叡山延暦寺,35.0704679356296,135.841133785971,1,,0,1,,1,,1,,,0,8,31,11,10,18
24806,1,48,NAGANO,chubu,名勝・天龍峡,35.4395636387845,137.820000499647,1,,0,,,,,,1,1,0,8,31,11,14,14
24127,1,41,TOCHIGI,kanto,栃木県中央公園,36.5587082057385,139.862904319249,,,0,,,,,1,1,1,0,8,31,11,20,7
25028,1,50,SHIZUOKA,chubu,天城峠(旧天城トンネル付近),34.8322826130566,138.932736184775,1,,0,1,,,,,,,0,8,31,11,19,12
24906,1,49,YAMANASHI,chubu,山中湖,35.4082615200431,138.878716296956,1,,1,1,,,,1,1,1,0,8,31,11,7,10
24515,1,45,CHIBA,kanto,亀山湖,35.2301224122909,140.084723035007,1,,0,,,,,,,1,0,8,31,12,2,13
26330,1,63,HYOGO,kinki,石龕寺,35.1003130292081,135.025692931668,,,0,,,,,1,,1,0,8,31,11,13,8
28211,1,82,FUKUOKA,kyusyu,白野江植物公園,33.9367197008432,131.001592359654,,,0,,,,,1,1,1,0,8,31,11,26,11
23601,1,36,FUKUSHIMA,tohoku,裏磐梯高原,37.6750719871081,140.070188493284,1,,0,,,,,,,,0,8,31,10,26,15
24514,1,45,CHIBA,kanto,本土寺,35.8406183232553,139.928361174129,,,0,,,,1,1,1,,0,8,31,11,30,12
24225,1,42,GUNMA,kanto,丸沼,36.8245892215951,139.342677470927,1,,0,,,,,,1,,0,8,31,10,18,11
25701,1,57,FUKUI,chubu,九頭竜湖,35.8744036939037,136.752151774315,1,,0,1,,,,,,,0,8,31,11,4,11
25235,1,52,GIFU,chubu,飛騨山王宮　日枝神社,36.1331775893399,137.261264731006,,,0,,,,,1,1,,0,8,31,11,9,8
25716,1,57,FUKUI,chubu,西山公園,35.9515687504898,136.182905890534,1,,1,,,,,1,1,,0,8,31,11,17,16
26824,1,68,SHIMANE,chugoku,由志園,35.4908441959149,133.175266312593,,,1,,,,,,,,0,8,31,11,12,16
26819,1,68,SHIMANE,chugoku,大万木山,35.0872392991293,132.845762288652,1,,0,1,,,1,,,,0,8,31,10,30,13
24504,1,45,CHIBA,kanto,成田山公園,35.7865812874093,140.321012087819,,,0,,,,1,1,1,1,0,8,31,11,24,15
28607,1,86,KUMAMOTO,kyusyu,熊本城(旧細川刑部邸),32.8093709041204,130.699599204298,,,1,,,,,1,,,0,8,31,11,24,11
24604,1,46,KANAGAWA,kanto,三溪園,35.4172674280401,139.660699149805,,,0,,,,,,,,0,8,31,12,3,14
24211,,42,GUNMA,kanto,草津白根山(芳ヶ平湿地群),36.6553323460461,138.547790590997,,,0,,,,,,,,0,9,15,10,10,9
24818,1,48,NAGANO,chubu,姫川渓谷,36.890047389678,137.862521765597,1,,0,1,,,,1,,,0,8,31,11,7,8
25509,,55,TOYAMA,chubu,美女平,36.5835754902002,137.459446780919,1,,0,,,,,1,,,0,9,15,10,29,12
21205,1,12,HOKKAIDO,hokkaido,大雪山旭岳,43.6636465930769,142.854210245326,1,,0,,,1,,,,,2,9,15,9,16,23
24207,1,42,GUNMA,kanto,榛名山,36.4768523368071,138.878275494099,1,,0,1,,1,,1,,,0,8,31,11,1,11
26305,1,63,HYOGO,kinki,神戸市立森林植物園,34.740999068608,135.177764839953,1,,1,1,,,,1,,1,0,8,31,11,12,21
26413,1,64,NARA,kinki,奥香落渓,34.544365985308,136.147022637777,1,,0,1,,,,,,,0,8,31,11,12,13
21402,1,14,HOKKAIDO,hokkaido,円山公園,43.0547449022882,141.314190438485,,,0,,,,,,,,0,8,31,10,26,6
28601,1,86,KUMAMOTO,kyusyu,菊池渓谷,33.0048848461989,130.941511202785,1,,0,,,,1,,,,0,8,31,11,12,10
24856,1,48,NAGANO,chubu,駒ヶ岳ロープウェイ,35.7775039532836,137.813512344702,1,,0,,,1,1,,,,0,9,15,10,9,26
28203,1,82,FUKUOKA,kyusyu,帆柱自然公園・皿倉山,33.8468697393903,130.79624737377,,,1,,,1,,1,1,,0,8,31,11,17,11
27408,1,74,KOUCHI,chugoku,黒尊渓谷,33.1511336207015,132.647443970188,1,,0,1,,,,,,,0,9,6,11,9,8
21217,1,12,HOKKAIDO,hokkaido,大雪山(黒岳),43.7102275738021,142.938955237653,1,,0,1,,1,,,,,2,9,15,9,17,25
27101,1,71,TOKUSHIMA,chugoku,祖谷渓,33.9070093645771,133.81336691712,1,,0,1,,,,1,,,0,8,31,11,7,14
25208,1,52,GIFU,chubu,恵那峡,35.4808266808096,137.406760582741,1,,0,,,,,1,1,,0,8,31,11,10,17
24849,1,48,NAGANO,chubu,野々海高原,37.0201182866439,138.527086665479,1,,0,1,,,,1,,,0,8,31,10,21,12
23308,1,33,IWATE,tohoku,久慈渓流,40.1754413568594,141.649683687225,,,0,1,,,,,,,0,8,31,10,30,13
26420,1,64,NARA,kinki,岡寺,34.471838034813,135.828259680138,,,0,,,,,,,,0,8,31,11,14,18
23214,1,32,AKITA,tohoku,鳥海ブルーライン(5合目鉾立),39.1219227471993,139.99093380554,1,,0,1,,,,1,,,0,8,31,10,10,13
26123,1,61,KYOTO,kinki,宇治,34.8873919694258,135.808024758331,,,0,,,,,,,,0,8,31,11,23,14
24117,1,41,TOCHIGI,kanto,蛇王の滝,36.8600421884692,139.568559433791,1,,0,1,,,1,,1,,0,8,31,10,26,17
25432,,54,NIIGATA,chubu,苗場ドラゴンドラ(山麓駅),36.8025582929051,138.780683574905,1,,0,1,,1,,1,,,0,9,4,10,28,16
23511,1,35,YAMAGATA,tohoku,滑川温泉,37.7822019494279,140.227960482959,1,,0,1,,,1,,,,0,8,31,10,23,10
24415,1,44,TOKYO,kanto,成蹊学園ケヤキ並木,35.7150273861369,139.574795219727,,,0,,,,,,,,0,8,31,11,19,13
26201,1,62,OSAKA,kinki,牛滝山,34.3719100960553,135.447994727612,1,,0,,,,1,,,,0,8,31,11,20,12
24848,1,48,NAGANO,chubu,湯田中渋温泉郷,36.741273347521,138.414873632717,1,,0,1,,,,1,,,0,8,31,11,7,12
24620,1,46,KANAGAWA,kanto,池峯「もみじの郷」,35.160679541734,139.059968218602,1,,0,,,,,,,,0,8,31,11,29,10
26716,,67,HIROSHIMA,chugoku,三段峡(入口周辺),34.6001884525615,132.207824297968,1,,0,,,,1,,,,0,8,31,11,10,11
26616,1,66,OKAYAMA,chugoku,岡山県立森林公園,35.2851791409827,133.87371415921,1,,0,1,,,1,1,,,0,8,31,10,30,14
26409,1,64,NARA,kinki,高取城跡,34.4295200418912,135.826848672859,,,0,,,,,,,,0,9,8,11,19,12
24001,1,40,IBARAKI,kanto,筑波山,36.2252287729463,140.106716798811,1,,1,1,,1,,,,,0,8,31,11,11,28
24451,1,44,TOKYO,kanto,野山北・六道山公園,35.7638163999515,139.383210265337,1,,0,,,,,1,,,0,8,31,11,27,15
27114,1,71,TOKUSHIMA,chugoku,月ケ谷温泉,33.8788542977456,134.413471814042,1,,0,1,,,,1,,,0,8,31,11,6,14
28101,1,81,YAMAGUCHI,chugoku,寂地峡,34.4355294968274,132.051343291764,1,,0,1,,,1,1,,,0,8,31,11,9,12
26328,1,63,HYOGO,kinki,播州清水寺,34.9724050430233,135.081124898655,,,1,1,,,,1,,,0,8,31,11,11,12
23607,,36,FUKUSHIMA,tohoku,中津川渓谷,37.6889079755936,140.145570480979,,,0,1,,,,,,,0,8,31,10,26,13
25429,1,54,NIIGATA,chubu,奥胎内,37.9268740086602,139.53651264939,,,0,1,,,1,1,,,0,8,31,11,2,16
23201,1,32,AKITA,tohoku,小安峡,39.0060976833859,140.664448643606,1,,0,1,,,1,,,,0,8,31,10,31,11
26401,1,64,NARA,kinki,吉野山,34.356438048678,135.870595652362,1,,0,1,,1,,1,,,0,8,31,11,13,18
26704,1,67,HIROSHIMA,chugoku,帝釈峡,34.8689902885144,133.203097190387,1,,0,,,,,,,,0,8,31,11,4,13
24458,1,44,TOKYO,kanto,大田黒公園,35.700607140666,139.624829194678,,,1,,,,,,,,0,8,31,12,6,15
27404,1,74,KOUCHI,chugoku,一の谷渓谷,33.7994544449699,133.281172983663,1,,0,,,,1,,,,0,8,31,11,4,9
27213,1,72,KAGAWA,chugoku,美霞洞渓谷,34.0969863120212,134.002895919992,1,,0,1,,,1,,1,,0,8,31,11,9,13
26130,1,61,KYOTO,kinki,仁和寺,35.0310939573211,135.713825800847,,,0,,,,,1,1,,0,8,31,11,18,12
25417,1,54,NIIGATA,chubu,湯沢高原ロープウェイ・高山植物園アルプの里,36.9377482687096,138.790254599177,1,,0,,,1,,1,1,,0,8,31,10,31,18
23109,1,31,AOMORI,tohoku,中野もみじ山,40.6107344037927,140.682104989146,1,,1,1,,,1,1,1,1,0,8,31,11,1,12
23206,1,32,AKITA,tohoku,十和田湖(小坂町),40.4087554153389,140.864353905358,1,,0,1,,,,,,,0,8,31,10,27,11
25021,1,50,SHIZUOKA,chubu,熱海梅園,35.0972535526272,139.060530207277,1,,1,,,,1,1,,1,0,8,31,11,28,11
24838,1,48,NAGANO,chubu,やまなみ広場,35.2969416803694,137.671337500956,1,,0,1,,,,,,,0,9,3,10,31,14
28812,,88,KAGOSHIMA,kyusyu,霧島(新湯温泉付近),31.9029170199581,130.85459902881,1,,0,1,,,,,,,0,8,31,11,8,12
23207,1,32,AKITA,tohoku,きみまち阪県立自然公園,40.2214825250903,140.256200990552,,,0,,,,,1,1,1,0,8,31,10,29,16
23420,,34,MIYAGI,tohoku,遠刈田温泉,38.1238728477324,140.576413480855,1,,0,1,,,,1,,,0,8,31,11,11,8
26503,1,65,WAKAYAMA,kinki,高野山,34.2131521062616,135.579985676975,,,1,1,,,1,,,,0,8,31,11,4,12
24445,1,44,TOKYO,kanto,光が丘公園,35.7655733709931,139.629546218334,,,0,,,,,,,,0,8,31,11,19,16
25403,1,54,NIIGATA,chubu,阿賀野川ライン,37.6865920608642,139.44683861892,1,,0,1,,,,,1,,0,8,31,11,5,15
28315,1,83,OITA,kyusyu,高崎山自然動物園,33.2582877373614,131.532815159123,1,,0,,,1,,1,1,,0,8,31,11,30,9
24010,1,40,IBARAKI,kanto,八溝山,36.9307500923868,140.273065308719,,,0,1,,,,,,,0,8,31,11,7,15
25312,,53,MIE,chubu,御在所岳(山上公園),35.0204408749165,136.417763675882,1,,0,,,1,,1,,,0,8,31,10,24,10
23624,,36,FUKUSHIMA,tohoku,安達太良山(湯川渓谷),37.6371469645233,140.311943437507,1,,0,,,,1,,,,0,8,31,10,23,13
28806,1,88,KAGOSHIMA,kyusyu,曽木の滝公園,32.0122540361894,130.577198086965,1,,0,,,,1,1,,,0,8,31,11,18,11
28127,1,81,YAMAGUCHI,chugoku,大照院,34.3951265845767,131.39125038533,,,0,,,,,,,,0,8,31,11,22,10
23119,,31,AOMORI,tohoku,岩木山(中腹付近),40.6554744448769,140.302734078792,1,,0,1,,1,,1,,,0,9,15,10,15,18
26619,1,66,OKAYAMA,chugoku,井山宝福寺,34.6913882510649,133.734210071425,1,,1,,,,,,,,0,8,31,11,14,10
24017,1,40,IBARAKI,kanto,佐白山(佐白山ろく公園),36.3841731896029,140.259616208862,,,0,,,,,1,,,0,9,8,11,22,9
21602,1,16,HOKKAIDO,hokkaido,ニセコ五色温泉郷,42.874213023347,140.638973540827,1,,0,1,,,,,,,0,9,15,10,10,9
24428,1,44,TOKYO,kanto,石神井公園,35.737424379853,139.595393219815,,,0,,,,,1,1,,0,8,31,12,2,12
26115,1,61,KYOTO,kinki,高台寺,35.0007939541761,135.781116783648,,,1,,,,,,,,0,8,31,11,18,19
23111,,31,AOMORI,tohoku,八甲田ロープウェー(中腹付近),40.6787263712544,140.844817970239,1,,0,,,1,,1,,,0,9,15,10,16,7
23212,1,32,AKITA,tohoku,長木渓流,40.2905374653096,140.631877927758,1,,0,,,,,,1,,0,8,31,10,31,13
23315,1,33,IWATE,tohoku,琴畑渓流,39.4145584900567,141.652862523294,,,0,,,,,,,,0,8,31,10,28,10
25409,1,54,NIIGATA,chubu,大佐渡スカイライン,38.0813361314963,138.333185915363,1,,0,1,,,,,,,0,8,31,10,30,13
25022,1,50,SHIZUOKA,chubu,梅ヶ島温泉,35.3060576006084,138.337713379815,1,,1,1,,,1,1,,,0,8,31,11,10,16
23611,1,36,FUKUSHIMA,tohoku,安達太良山,37.6270419694604,140.285555440804,1,,0,,,,1,,,,0,8,31,10,23,16
24926,1,49,YAMANASHI,chubu,身延山久遠寺,35.3819445774962,138.424715377302,1,,0,,,1,,1,,,0,8,31,11,22,10
26129,1,61,KYOTO,kinki,天龍寺,35.0158319646114,135.673771804984,1,,0,,,,,,,,0,8,31,11,11,19
26121,1,61,KYOTO,kinki,知恩院,35.0061599529784,135.783820784158,,,1,,,,,,1,1,0,8,31,11,18,14
22007,1,20,HOKKAIDO,hokkaido,トムラウシ温泉,43.4600736257408,142.875222188663,1,,0,,,,,,,,0,9,15,10,11,8
24202,1,42,GUNMA,kanto,草津温泉,36.6238983453943,138.59755557553,1,,1,1,,,,1,,,0,8,31,10,27,10
26805,1,69,TOTTORI,chugoku,三徳山三佛寺(国宝投入堂),35.3965021129377,133.959424166127,1,,0,,,,,,,,0,9,7,11,10,13
27218,1,72,KAGAWA,chugoku,香川用水記念公園,34.0999453400715,133.764814959278,1,,0,,,,,1,,,0,8,31,11,7,8
24516,1,45,CHIBA,kanto,千葉県立船橋県民の森,35.7684983208536,140.058271135851,,,0,,,,,1,1,,0,8,31,12,4,15
24110,1,41,TOCHIGI,kanto,湯滝,36.7954332163463,139.428544448696,1,,0,,,,1,1,1,,0,8,31,10,18,13
25304,1,53,MIE,chubu,水沢もみじ谷,34.9842548760616,136.458299662168,1,,1,,,,,1,,,0,8,31,11,28,10
26301,1,63,HYOGO,kinki,再度公園,34.7214930720861,135.17496283689,,,0,1,,,,1,,,,,,11,16,12
23205,1,32,AKITA,tohoku,抱返り渓谷,39.6081325806268,140.651471774108,1,,0,1,,,1,,,,0,8,31,10,31,13
24115,1,41,TOCHIGI,kanto,五十里湖,36.920084163317,139.692242421116,1,,0,1,,,,,,,0,8,31,11,5,14
26210,1,62,OSAKA,kinki,大阪府立花の文化園,34.4353800732735,135.553364720899,1,,1,,,,,1,,,0,8,31,11,20,18
23610,1,36,FUKUSHIMA,tohoku,尾瀬沼(福島側),36.9326772071285,139.308277498336,1,,0,,,,,,,,0,8,31,10,12,10
24009,1,40,IBARAKI,kanto,奥久慈渓谷,36.7706591104188,140.357477261688,1,,0,1,,,,,,,0,8,31,11,13,12
27305,1,73,EHIME,chugoku,西山興隆寺,33.9056784591842,133.025363043173,1,,0,,,,,,,,0,8,31,11,9,21
27206,1,72,KAGAWA,chugoku,柏原渓谷,34.1581303022362,134.004072930707,,,0,1,,,,1,,,0,9,10,11,10,9
23515,1,35,YAMAGATA,tohoku,眺海の森,38.8540747943446,139.981938750879,1,,0,1,,,,,,,0,9,1,11,5,13
24232,1,42,GUNMA,kanto,赤城自然園,36.5377053017587,139.084489466137,1,,0,,,,,1,1,,0,8,31,11,6,21
25118,1,51,AICHI,chubu,つぐ高原グリーンパーク,35.1993457044973,137.605993495218,1,,0,1,,,,1,,,0,8,31,11,4,11
25315,1,53,MIE,chubu,三重県民の森,35.0466788633313,136.478780669873,1,,0,,,,,,1,,0,8,31,11,14,9
24449,1,44,TOKYO,kanto,府中の森公園,35.6769294023871,139.491804228781,,,0,,,,1,1,,,0,8,31,11,23,16
25418,1,54,NIIGATA,chubu,保内公園,37.638523121073,139.021976692355,1,,0,,,,,1,,1,0,8,31,11,8,14
23404,1,34,MIYAGI,tohoku,泉ヶ岳,38.4113197814293,140.709289511831,1,,0,1,,,,,,,0,8,31,10,23,23
24313,1,43,SAITAMA,kanto,鳥居観音,35.8798344033425,139.182601324859,1,,0,1,,,1,,,1,0,9,7,11,14,15
24807,1,48,NAGANO,chubu,中央アルプス(千畳敷カール),35.7781915846447,137.813834209852,1,,0,,,1,,,,,0,9,15,9,29,10
24902,1,49,YAMANASHI,chubu,御岳昇仙峡,35.7453104987329,138.567301416719,1,,1,1,,1,1,,,,0,8,31,11,12,14
25303,1,53,MIE,chubu,伊勢神宮(内宮),34.4554019323855,136.723290520947,,,0,,,,,1,1,,0,8,31,11,24,12
23619,1,36,FUKUSHIMA,tohoku,雪割橋雪割渓谷,37.170268073312,140.082394392352,1,,0,1,,,1,,,,0,8,31,11,1,10
23634,1,36,FUKUSHIMA,tohoku,国宝白水阿弥陀堂,37.0365200071805,140.837374216074,1,,1,,,,,1,1,,0,8,31,11,17,14
24843,1,48,NAGANO,chubu,白骨温泉,36.1519125419233,137.627798667285,1,,0,1,,,1,,,,0,8,31,10,23,11
23419,,34,MIYAGI,tohoku,蔵王エコーライン(滝見台付近),38.1341409218277,140.525107571928,1,,0,1,,,1,,,,0,8,31,10,28,13
23108,1,31,AOMORI,tohoku,白神山地(暗門の滝),40.5223444867789,140.153998079467,1,,0,1,,,1,1,,,0,8,31,10,24,13
25124,1,51,AICHI,chubu,岡崎市東公園,34.9540707941683,137.193522525738,,,1,,,,,,1,1,0,8,31,11,22,13
26105,1,61,KYOTO,kinki,南禅寺,35.0112599509495,135.793815783357,,,0,,,,,,,,0,8,31,11,18,14
26304,1,63,HYOGO,kinki,神戸市立須磨離宮公園,34.6535330898898,135.117712834303,1,,1,,,,1,1,1,1,0,8,31,11,21,15
24929,1,49,YAMANASHI,chubu,南アルプス街道・早川渓谷,35.5313725655398,138.309539425834,1,,0,1,,,,1,,,0,8,31,11,8,13
26003,1,60,SHIGA,kinki,日吉大社,35.0721539325301,135.864672782187,1,,1,,,,,,1,1,0,8,31,11,18,12
28106,1,81,YAMAGUCHI,chugoku,東行庵,34.0856206702081,131.071188376453,1,,0,,,,,1,,,0,8,31,11,12,13
23618,1,36,FUKUSHIMA,tohoku,翠ヶ丘公園,37.2900110167962,140.380963356066,1,,0,,,,1,1,1,,0,8,31,11,5,15
24457,1,44,TOKYO,kanto,旧岩崎邸庭園,35.7090193647565,139.768316181346,,,0,,,,,,1,,0,9,14,12,4,14
25213,1,52,GIFU,chubu,郡上八幡城,35.7529646887077,136.961628713797,1,,1,,,,,,1,1,0,8,31,11,13,10
21413,1,14,HOKKAIDO,hokkaido,青葉公園(千歳市),42.8133789012114,141.633615306973,1,,0,1,,,,1,,,0,8,31,10,25,8
24503,1,45,CHIBA,kanto,清水公園,35.9597003114927,139.850607210858,1,,0,,,,,1,,,0,8,31,11,30,13
28231,1,82,FUKUOKA,kyusyu,くつろぎの森 グリーンピア八女,33.182635851153,130.682472271831,1,,0,,,,,,,,0,8,31,11,7,17
27316,1,73,EHIME,chugoku,鈍川渓谷,33.9762284590397,132.9360960699,1,,0,,,,,,,,0,8,31,11,11,12
25717,1,57,FUKUI,chubu,福井県総合グリーンセンター,36.107857710338,136.302249899182,1,,0,,,,,1,1,,0,8,31,11,12,13
26133,1,61,KYOTO,kinki,祇王寺,35.0235009642024,135.666806807592,,,0,,,,,,,,0,8,31,11,21,4
25603,1,56,ISHIKAWA,chubu,鶴仙渓,36.244794678898,136.375869912359,1,,1,,,,,,,,0,8,31,11,16,10
27304,1,73,EHIME,chugoku,別子ライン,33.8722474321508,133.293645994568,1,,0,1,,,,1,,,0,8,31,11,13,13
24406,1,44,TOKYO,kanto,六義園,35.7328293630871,139.746880189781,1,,0,,,,,1,1,1,0,8,31,12,3,14
23512,1,35,YAMAGATA,tohoku,朝日川渓谷,38.2916138817735,140.058890619206,1,,0,,,,1,,,,0,8,31,10,31,12
24301,1,43,SAITAMA,kanto,三峰山,35.9258864250513,138.930351381341,1,,0,1,,,,1,,,0,8,31,11,3,17
26010,1,60,SHIGA,kinki,湖東三山西明寺,35.1839288639286,136.284491729187,1,,0,,,,,,,,0,8,31,11,15,18
28202,1,82,FUKUOKA,kyusyu,秋月城跡,33.4653958953682,130.695134224154,1,,0,,,,,1,1,,0,9,1,11,22,11
21603,1,16,HOKKAIDO,hokkaido,神仙沼(神仙沼自然休養林),42.9037560246274,140.592271558477,1,,0,1,,,,1,,1,0,8,31,10,13,8
28308,1,83,OITA,kyusyu,白馬渓,33.1151597304491,131.770410098366,1,,0,,,,1,,,1,0,8,31,11,23,8
26219,1,62,OSAKA,kinki,枚岡公園,34.6723750218546,135.661940744694,,,0,,,,,,,,0,8,31,11,28,10
23412,1,34,MIYAGI,tohoku,谷山自然公園,38.1501228296101,140.688066463445,1,,0,,,,,,,,0,9,8,11,7,12
27103,1,71,TOKUSHIMA,chugoku,高の瀬峡,33.7892193513701,134.080734852893,1,,0,,,,1,1,,,0,9,1,11,6,14
25123,1,51,AICHI,chubu,段戸裏谷原生林きららの森,35.1160457338476,137.475584503904,1,,0,1,,,,,,,0,9,1,11,4,14
23107,1,31,AOMORI,tohoku,奥入瀬渓流,40.5235833815609,140.973873907969,1,,0,1,,,1,,1,,0,8,31,10,28,10
25219,1,52,GIFU,chubu,佐見川峡,35.6495876780375,137.193663652579,1,,0,1,,,,1,,,0,8,31,11,11,9
26504,1,65,WAKAYAMA,kinki,根来寺境内もみじ谷公園,34.287027125406,135.316204734975,1,,0,,,,,1,1,,0,8,31,11,27,12
24828,1,48,NAGANO,chubu,高瀬渓谷(高瀬ダム・大町ダム付近),36.4730894803495,137.691946716612,1,,0,1,,,1,1,,,0,8,31,10,25,20
24403,1,44,TOKYO,kanto,小金井公園,35.7164253922908,139.519700230567,,,0,,,,,1,,,0,8,31,11,25,13
24603,1,46,KANAGAWA,kanto,源氏山公園,35.3249784572804,139.546209155343,,,0,,,,,,,,0,8,31,12,1,11
24820,1,48,NAGANO,chubu,栂池自然園,36.772922415213,137.814263751782,1,,0,,,1,,1,,,0,9,15,10,1,10
26411,1,64,NARA,kinki,長岳寺,34.5609680174415,135.852057691918,1,,0,,,,,,,,0,8,31,11,19,15
23215,1,32,AKITA,tohoku,かたまえ山森林公園展望台,39.7166095646425,140.629370802133,1,,0,,,,,1,,,0,8,31,10,30,12
26009,1,60,SHIGA,kinki,湖東三山(金剛輪寺),35.1632648679079,136.279597726265,,,1,,,,,1,1,,0,8,31,11,12,23
24104,1,41,TOCHIGI,kanto,中禅寺湖,36.7394052182705,139.493399425423,1,,0,1,,,,1,1,,0,8,31,10,26,13
28809,1,88,KAGOSHIMA,kyusyu,藺牟田池県立自然公園,31.8149680775368,130.472107069385,,,0,,,,,,,,0,9,1,11,25,10
24119,1,41,TOCHIGI,kanto,瀬戸合峡,36.8777307380138,139.52053441843,1,,0,1,,,,,,,0,8,31,10,25,15
23314,1,33,IWATE,tohoku,夏油高原温泉郷,39.2119606199869,140.887435640797,1,,0,1,,1,,,,,0,8,31,10,24,11
24502,1,45,CHIBA,kanto,泉自然公園,35.575755335234,140.227446068386,,,0,,,,,1,1,,0,9,1,11,24,10
27307,1,73,EHIME,chugoku,白滝公園,33.580474568851,132.529305063395,,,1,,,,1,,,,0,8,31,11,19,9
25431,,54,NIIGATA,chubu,苗場ドラゴンドラ(山頂駅),36.8426512899677,138.7484175888,1,,0,1,,1,,1,,,0,9,4,10,20,10
23608,1,36,FUKUSHIMA,tohoku,若郷湖畔,37.3319430655318,139.913105457172,1,,0,1,,,,1,,,0,8,31,11,2,13
28504,1,85,SAGA,kyusyu,北山ダム,33.4336708685721,130.237098380997,1,,0,,,,,1,,,0,8,31,11,11,9
26310,1,63,HYOGO,kinki,天滝渓谷,35.3326660418864,134.617725044075,1,,0,1,,,1,,,1,0,8,31,11,12,12
24006,1,40,IBARAKI,kanto,花貫渓谷,36.7336550863364,140.617606203004,,,0,1,,,1,1,,1,0,8,31,11,20,9
26116,1,61,KYOTO,kinki,大本山随心院,34.9593659567433,135.81600677004,,,1,,,,,,,,0,8,31,11,21,12
24316,1,43,SAITAMA,kanto,能仁寺,35.8608023917718,139.309513297116,,,0,,,,,,,,0,8,31,11,22,13
28201,1,82,FUKUOKA,kyusyu,英彦山,33.4765287781948,130.926120288037,1,,0,1,,1,,1,,,0,8,31,11,11,11
27205,1,72,KAGAWA,chugoku,金刀比羅宮,34.1839983215013,133.809562967048,1,,0,,,,,1,1,,0,8,31,11,19,13
25108,1,51,AICHI,chubu,茶臼山高原,35.220644694545,137.6600884892,1,,1,1,,1,,,,,0,8,31,10,26,16
23509,1,35,YAMAGATA,tohoku,月山,38.5489748413021,140.026875678389,1,,0,1,,1,,,,,0,9,15,10,8,19
28813,,88,KAGOSHIMA,kyusyu,霧島(霧島神宮付近),31.8588240245856,130.871087019155,1,,0,1,,,,1,,1,0,8,31,11,20,12
21212,,12,HOKKAIDO,hokkaido,大雪山(高原温泉),43.6263675894554,142.930937218069,1,,0,1,,,,,,,0,9,15,9,18,10
25408,1,48,NAGANO,chubu,八方尾根(八方池・八方尾根自然研究路),36.7352014212867,137.816308744071,1,,0,,,,,,,,0,9,15,10,8,18
24609,1,46,KANAGAWA,kanto,宮ヶ瀬湖,35.5276814595909,139.221770253465,1,,0,1,,1,1,1,1,,0,9,7,11,21,11
28110,1,81,YAMAGUCHI,chugoku,功山寺,33.9959806944927,130.981959373371,,,1,,,,,1,,1,0,8,31,11,25,11
23203,1,32,AKITA,tohoku,太平湖・小又峡,40.0339825109196,140.62087387322,1,,0,1,,,1,,,,0,8,31,10,24,10
22303,1,23,HOKKAIDO,hokkaido,鳥崎渓谷,42.0829861698131,140.546399363984,1,,0,,,,,,,,0,8,31,10,29,11
26019,1,60,SHIGA,kinki,メタセコイア並木,35.4666988475392,136.035914825137,1,,0,1,,,,1,,,0,8,31,11,27,15
24302,1,43,SAITAMA,kanto,中津峡,35.9772774269646,138.839359408082,1,,0,1,,,,,,,0,8,31,11,5,16
26120,1,61,KYOTO,kinki,永観堂禅林寺,35.0141279503406,135.794999783675,,,1,,,,,,,,0,8,31,11,17,12
24509,1,45,CHIBA,kanto,佐倉城址公園,35.7236503103101,140.218094096642,,,0,1,,,,1,,,0,8,31,12,1,11
28704,1,87,MIYAZAKI,kyusyu,五ヶ瀬町内,32.6832918636652,131.195943109853,1,,0,1,,,1,,,,0,8,31,11,7,10
26509,1,65,WAKAYAMA,kinki,玉川峡,34.2579020906762,135.650486672801,1,,0,,,,,,,,0,9,1,11,11,14
24831,1,48,NAGANO,chubu,旧碓氷峠見晴台,36.3674293820018,138.656459515624,1,,0,,,,,,,,0,8,31,10,29,10
23627,1,36,FUKUSHIMA,tohoku,達沢不動滝,37.5932859819447,140.23066544515,1,,0,,,,1,,,,0,8,31,11,1,9
25703,1,57,FUKUI,chubu,西福寺,35.6569668169477,136.032163861406,1,,0,,,,,,1,,0,8,31,11,11,14
26122,1,61,KYOTO,kinki,青蓮院門跡,35.0073139528677,135.783176784481,,,1,,,,1,,,,0,8,31,11,22,13
24928,1,49,YAMANASHI,chubu,大柳川渓谷,35.5092825611777,138.378678408938,1,,0,,,,1,,,1,0,8,31,11,17,10
25302,1,53,MIE,chubu,赤目四十八滝,34.5633679894306,136.085643651844,1,,1,1,,,1,1,1,1,0,8,31,11,12,16
24433,1,44,TOKYO,kanto,甲州街道いちょう並木,35.6521274288436,139.301121260791,1,,1,1,,,,1,,1,0,8,31,11,17,18
24517,1,45,CHIBA,kanto,ふなばしアンデルセン公園,35.7597403221523,140.060313133877,,,0,,,,,1,,,0,8,31,11,24,16
24840,1,48,NAGANO,chubu,田立の滝,35.6304736390657,137.546780584744,1,,0,,,,1,,,,0,8,31,11,7,14
28605,1,86,KUMAMOTO,kyusyu,蘇陽峡,32.7209378591667,131.186515117683,,,0,1,,,1,1,,1,0,8,31,11,10,8
25229,1,52,GIFU,chubu,谷汲山華厳寺,35.5372367669659,136.607902737054,1,,0,,,,,1,,1,0,8,31,11,16,12
25507,1,55,TOYAMA,chubu,有峰森林文化村(有峰森林文化公園),36.4919388563185,137.457656373502,1,,0,1,,,,1,,,0,8,31,10,24,13
27310,1,73,EHIME,chugoku,滑床渓谷,33.2035036118876,132.653829978236,,,0,,,,1,,,,0,8,31,11,10,10
24923,1,49,YAMANASHI,chubu,八ヶ岳高原(清里付近),35.9314934850346,138.414723479674,1,,0,1,,,1,1,,,0,9,9,10,26,14
26406,1,64,NARA,kinki,談山神社,34.465142032108,135.860418673395,,,1,1,,,,1,,1,0,8,31,11,14,15
25504,,55,TOYAMA,chubu,称名滝,36.575275483815,137.523095767556,1,,0,1,,,1,1,,,0,9,15,10,28,13
26138,1,61,KYOTO,kinki,善峯寺,34.9380269807713,135.644420795842,1,,0,,,,1,,1,,0,8,31,11,13,13
28403,1,84,NAGASAKI,kyusyu,舟志川,34.5993268005886,129.435976710868,1,,0,1,,,,1,,,0,9,3,11,15,8
24854,1,48,NAGANO,chubu,白糸の滝(軽井沢),36.4103223823411,138.592543535845,1,,0,1,,,1,,,,0,8,31,10,28,11
26112,1,61,KYOTO,kinki,清水寺,34.9948819546705,135.785021781891,,,1,,,,,1,,,0,8,31,11,20,14
24851,1,48,NAGANO,chubu,東山公園(中野市),36.7423883512215,138.382748639013,1,,0,1,,,,,,,0,8,31,11,7,11
26016,1,60,SHIGA,kinki,西教寺,35.0801439307626,135.868547782977,1,,0,,,,,,1,,0,9,7,11,18,14
24116,1,41,TOCHIGI,kanto,行道山浄因寺,36.3802732866176,139.440183368004,,,0,,,,,,,,0,8,31,11,22,13
26713,1,67,HIROSHIMA,chugoku,吾妻山ロッジ,35.0629652804174,133.02641125515,1,,0,1,,,,,,,,,,,,
26806,1,69,TOTTORI,chugoku,芦津渓谷,35.2743290871903,134.324033082402,,,0,1,,,1,,,,0,8,31,11,4,15
21604,1,16,HOKKAIDO,hokkaido,賀老高原ブナ原生林,42.6055541546362,139.999564610588,1,,0,,,,1,,,,0,8,31,10,18,9
25033,1,50,SHIZUOKA,chubu,小国神社,34.8474147296199,137.899439378739,,,1,,,,,1,1,1,0,8,31,11,25,12
28107,1,81,YAMAGUCHI,chugoku,高瀬湖,34.174029571449,131.765638287674,1,,0,1,,,,,,,0,8,31,11,13,9
24850,1,48,NAGANO,chubu,白樺湖,36.1073504756823,138.242406544721,1,,0,1,,,,1,,,0,8,31,10,22,13
24601,1,46,KANAGAWA,kanto,箱根小涌園蓬莱園,35.237278529834,139.048457234369,1,,0,,,,1,,1,,0,8,31,11,17,13
27317,,73,EHIME,chugoku,石鎚山(成就社〜ロープウェイ山頂駅付近),33.7949834633717,133.133283006398,1,,0,1,,1,1,,,1,0,8,31,11,2,10
26416,,64,NARA,kinki,吉野山(中千本),34.365307048112,135.863087655226,1,,0,1,,1,,1,,,0,8,31,11,16,14
24101,1,41,TOCHIGI,kanto,奥日光湯ノ湖畔,36.8016872154498,139.427025450184,1,,0,,,,,,,,0,8,31,10,17,11
28232,1,82,FUKUOKA,kyusyu,曲渕ダムパーク,33.4973288507413,130.306908382297,,,0,,,,,,,,0,8,31,11,18,7
24456,1,44,TOKYO,kanto,豊島区立目白庭園,35.7245253693393,139.705399196288,,,1,,,,,,1,,0,8,31,11,24,15
24853,1,48,NAGANO,chubu,松川渓谷,36.6615913579639,138.44021761259,1,,0,1,,,1,,,,0,8,31,10,25,14
26822,1,68,SHIMANE,chugoku,金言寺大イチョウ,35.0990672706191,133.060545256479,1,,1,1,,,,,,,0,9,8,11,5,8
26801,1,68,SHIMANE,chugoku,立久恵峡,35.2959672807565,132.736788345731,1,,1,,,,,,,,0,8,31,11,12,9
26414,,64,NARA,kinki,吉野山(奥千本),34.3404920500499,135.881097647732,1,,0,1,,1,,1,,,0,8,31,11,13,12
21702,1,17,HOKKAIDO,hokkaido,知床峠,44.0541962316556,145.104797810958,1,,0,1,,,,1,,,0,8,31,10,14,10
26132,1,61,KYOTO,kinki,北野天満宮,35.031204954744,135.735138797176,,,0,,,,,,,,0,8,31,11,16,28
24220,1,42,GUNMA,kanto,草津白根山,36.6200043535883,138.535015586656,,,0,,,,,,,,0,9,15,10,8,15
24914,1,49,YAMANASHI,chubu,芦川渓谷,35.5378473352272,138.54754265053,1,,0,1,,,1,,,,0,8,31,11,8,15
24622,1,46,KANAGAWA,kanto,大山地区の紅葉（大山寺・大山阿夫利神社下社）,35.4292954745632,139.239426232446,1,,1,,,,1,1,,,0,8,31,11,24,12
28229,1,82,FUKUOKA,kyusyu,山中渓谷公園(もみじ谷),33.1855598508784,130.681182272533,1,,0,1,,,,,,,0,9,7,11,10,10
25433,1,54,NIIGATA,chubu,清水園,37.9433960314043,139.32827769375,1,,1,1,,,1,1,1,1,0,8,31,11,9,14
26117,1,61,KYOTO,kinki,圓徳院,35.0007919543543,135.779633783904,,,1,,,,,,,,0,9,3,11,22,14
24003,1,40,IBARAKI,kanto,花園渓谷,36.8823790586178,140.630915228312,,,1,1,,,1,,,,0,8,31,11,17,10
24512,,45,CHIBA,kanto,養老渓谷(梅ヶ瀬渓谷),35.251364403307,140.1308700298,1,,0,,,,,,,,0,8,31,12,2,9
25513,1,55,TOYAMA,chubu,宇奈月温泉街,36.7319704454075,137.623289779374,1,,1,1,,,,1,,,0,9,7,11,7,14
24437,1,44,TOKYO,kanto,水元公園,35.7937243382555,139.869568177049,,,0,,,,,1,,,0,8,31,12,7,9
27406,1,74,KOUCHI,chugoku,轟の滝,33.7120113927972,133.834056879454,,,0,,,,1,,,1,0,9,3,11,13,11
26333,1,63,HYOGO,kinki,宗鏡寺,35.4632409889269,134.879908024262,1,,0,,,,,,1,,,,,,,
24447,1,44,TOKYO,kanto,陵南公園,35.6495274307475,139.288622262707,,,0,,,,,1,1,,0,8,31,11,18,14
24812,1,48,NAGANO,chubu,久米路峡,36.5673224229734,138.034488670879,1,,0,1,,,,1,,,0,8,31,11,4,16
24218,1,42,GUNMA,kanto,尾瀬沼(群馬側),36.9199102095576,139.306326496259,1,,0,,,,,,,,0,8,31,10,12,11
23406,1,34,MIYAGI,tohoku,秋保温泉郷,38.2258598117139,140.72652647083,1,,0,,,,,,,,0,8,31,11,7,13
25110,1,51,AICHI,chubu,東山動植物園,35.1574587853017,136.981265600551,,,0,,,,,1,1,,0,8,31,11,21,14
28814,,88,KAGOSHIMA,kyusyu,霧島(大浪池付近),31.9230620178766,130.846802033264,1,,0,1,,,,,,,0,8,31,11,5,11
28302,1,83,OITA,kyusyu,裏耶馬溪,33.3912597690597,131.105517246342,1,,0,1,,,,1,,,0,9,3,11,12,11
24221,1,42,GUNMA,kanto,浅間隠山,36.4550693675519,138.652383532975,1,,0,,,,,,,,0,8,31,11,2,12
24861,,48,NAGANO,chubu,志賀高原(熊の湯付近),36.6840893474519,138.495662606404,1,,0,1,,1,,1,1,,0,9,15,10,11,11
24804,1,48,NAGANO,chubu,蓼科,36.0515584830403,138.260007530992,1,,0,1,,,,,,,0,8,31,10,22,18
26211,1,62,OSAKA,kinki,長野公園(延命寺地区),34.4249490701505,135.59405971207,1,,0,,,,,,,,0,8,31,11,24,10
21209,,12,HOKKAIDO,hokkaido,十勝岳(安政火口),43.4096876624866,142.662374224799,1,,0,,,,,,,,1,9,15,9,21,10
23305,1,33,IWATE,tohoku,早坂高原,39.86021442995,141.506311649282,,,0,1,,,,1,,,0,9,15,10,16,12
25111,1,51,AICHI,chubu,名城公園,35.1891237894588,136.90185962053,,,0,,,,,1,1,,0,8,31,11,16,13
24817,1,48,NAGANO,chubu,小諸城址懐古園,36.3275284173762,138.417584553245,1,,0,,,,,1,1,1,0,8,31,11,6,16
28104,1,81,YAMAGUCHI,chugoku,紅葉谷公園,34.1692655221493,132.173568224048,1,,0,,,1,,1,,,0,8,31,11,13,9
24844,1,48,NAGANO,chubu,乗鞍高原,36.119132551566,137.593365667434,1,,0,1,,,1,,,,0,9,1,10,16,18
26609,1,66,OKAYAMA,chugoku,若杉天然林,35.2200580905897,134.366229065163,1,,0,,,,,,,,0,9,3,11,3,12
25313,,53,MIE,chubu,御在所岳(ロープウェイ中腹),35.0182778732222,136.435001672448,1,,0,,,1,,1,,,0,8,31,11,5,19
25032,1,50,SHIZUOKA,chubu,香貫山,35.0922805745699,138.877496240842,,,1,,,,,1,1,,0,8,31,11,12,18
25109,1,51,AICHI,chubu,定光寺・定光寺公園,35.2805184844382,137.090978920558,,,0,,,,,,,,0,8,31,11,15,16
25605,1,56,ISHIKAWA,chubu,特別名勝兼六園,36.5623775915673,136.662192922463,,,1,,,,1,1,,,0,8,31,11,15,13
24904,1,49,YAMANASHI,chubu,河口湖畔,35.5258225134129,138.762363340068,1,,1,1,,,,1,1,1,0,8,31,11,12,13
25609,1,56,ISHIKAWA,chubu,辰口丘陵公園,36.4368726265439,136.545602919069,1,,0,,,,,1,,,0,8,31,11,5,19
21701,1,17,HOKKAIDO,hokkaido,知床五湖,44.1221872226002,145.080571834038,1,,0,,,,,1,1,,0,9,15,10,16,6
25231,1,52,GIFU,chubu,下呂温泉合掌村,35.8083396448562,137.249682671957,1,,0,,,,,1,,,0,8,31,11,10,15
25301,1,53,MIE,chubu,御在所岳,35.0204408749165,136.417763675882,1,,0,,,1,,1,1,,0,8,31,10,24,40
24444,1,44,TOKYO,kanto,善福寺川緑地・和田堀公園,35.6846803837443,139.640944201519,,,0,,,,,1,,,0,8,31,11,29,13
21213,,12,HOKKAIDO,hokkaido,大雪山(銀泉台),43.6709165777684,142.960793222537,1,,0,1,,,,,,,2,9,15,9,17,10
24829,1,48,NAGANO,chubu,白駒の池,36.0505594710932,138.361699511756,1,,0,,,,,,,,0,9,15,10,9,11
25510,,55,TOYAMA,chubu,室堂平,36.577393474543,137.596224754433,1,,0,,,,,1,,,1,9,15,9,18,9
26102,1,61,KYOTO,kinki,嵯峨野(宝筐院),35.0225139635482,135.673586806239,1,,0,,,,,1,1,,0,8,31,11,20,14
27208,,72,KAGAWA,chugoku,寒霞渓(山頂付近),34.5156512100763,134.300706946243,,,0,1,,1,,1,,1,0,8,31,11,9,16
24124,1,41,TOCHIGI,kanto,那須岳,37.1247710954278,139.963495407098,1,,0,,,1,,,,,0,9,15,10,9,16
28213,1,82,FUKUOKA,kyusyu,雷山千如寺大悲王院,33.4946578607241,130.228633393133,,,0,,,,,,,,0,8,31,11,12,12
24011,1,40,IBARAKI,kanto,湯沢峡,36.6960190156243,140.418162276392,1,,0,1,,,1,,,,0,8,31,11,12,13
26139,1,61,KYOTO,kinki,勝持寺(花の寺),34.9607909762624,135.651188798827,,,0,,,,,,1,,0,8,31,11,20,8
24608,1,46,KANAGAWA,kanto,山下公園通りイチョウ並木,35.4458124243203,139.649789156985,,,0,1,,,,1,1,,0,8,31,11,25,15
27301,1,73,EHIME,chugoku,奥道後壱湯の守,33.8656054894898,132.825041067662,1,,0,1,,,1,1,1,,0,8,31,11,19,15
23625,1,36,FUKUSHIMA,tohoku,南湖公園,37.1109760676936,140.216087354438,1,,1,1,,,,1,1,1,0,8,31,11,8,12
22006,1,20,HOKKAIDO,hokkaido,然別湖,43.2969766225385,143.117362091771,1,,0,1,,,,1,,,0,9,15,10,8,9
26614,1,66,OKAYAMA,chugoku,天神峡,34.6444532962672,133.423810113201,,,0,,,,,,,,0,8,31,11,11,10
24204,1,42,GUNMA,kanto,吾妻峡,36.5609073413568,138.72039654015,1,,0,,,,1,1,,,0,8,31,11,2,14
24121,1,41,TOCHIGI,kanto,大芦渓谷,36.6596982240442,139.560572397241,1,,0,1,,,1,,,,0,8,31,11,11,13
25101,1,51,AICHI,chubu,香嵐渓,35.1302867505971,137.313119535894,1,,0,,,,,1,1,,,,,,,
25708,1,57,FUKUI,chubu,越前陶芸公園,35.9352767681789,136.060002909176,1,,1,,,,,1,,1,0,8,31,11,4,16
26622,1,66,OKAYAMA,chugoku,泉源渓谷,35.2527571454828,133.878387152318,1,,0,1,,,1,1,,,0,8,31,11,3,15
25215,,52,GIFU,chubu,白川郷(荻町展望台),36.2629606108684,136.907074820217,1,,0,1,,,,1,1,,0,8,31,11,2,14
25130,1,51,AICHI,chubu,大井平公園,35.2100817140157,137.509858514656,1,,1,,,,,,,1,0,8,31,11,9,13
23110,,31,AOMORI,tohoku,八甲田ロープウェー(山頂付近),40.6718883699806,140.863985964638,1,,0,,,1,,1,,,0,9,15,10,9,8
24455,1,44,TOKYO,kanto,高幡不動尊,35.662011414364,139.41095224158,,,0,,,,,,,,0,8,31,11,24,12
26407,1,64,NARA,kinki,總本山信貴山朝護孫子寺,34.6094220310854,135.670438731918,1,,1,1,,,,1,1,,0,8,31,11,13,15
21408,1,14,HOKKAIDO,hokkaido,定山渓温泉,42.9666469371785,141.165348449038,1,,0,,,,,,,,0,9,15,10,15,14
26203,1,62,OSAKA,kinki,能勢,34.9757589958576,135.46785683315,1,,0,,,,,,,,0,9,6,11,19,15
21401,1,14,HOKKAIDO,hokkaido,豊平峡ダム,42.9158439474167,141.153511438808,1,,0,,,,,,,,0,8,31,10,12,16
24860,,48,NAGANO,chubu,志賀高原(横手山付近),36.668830346373,138.526067597708,1,,0,1,,1,,1,1,,0,9,15,10,7,11
26615,1,66,OKAYAMA,chugoku,奥津渓,35.2145591473771,133.911540139651,1,,1,1,,,1,1,1,1,0,8,31,11,4,16
26111,1,61,KYOTO,kinki,東福寺,34.9770959588724,135.774120780534,,,0,,,,,,1,,0,8,31,11,17,17
23504,1,35,YAMAGATA,tohoku,天元台高原,37.7753799619981,140.133903500426,1,,0,1,,1,1,1,,,0,8,31,10,13,22
21409,1,14,HOKKAIDO,hokkaido,札幌もいわ山ロープウェイ,43.0314869037375,141.333097428407,1,,0,1,,1,,1,,,0,9,8,10,21,11
25002,1,50,SHIZUOKA,chubu,寸又峡,35.1807523826538,138.112835977914,1,,0,,,,,,,,0,8,31,11,14,14
27215,1,72,KAGAWA,chugoku,塩江温泉郷,34.1703972909602,134.082059920135,1,,0,1,,,1,1,,1,0,8,31,11,10,16
24809,1,48,NAGANO,chubu,聖高原,36.4879696405465,138.068547593023,1,,0,1,,,1,,,,0,8,31,10,28,15
26012,1,60,SHIGA,kinki,大瀧神社,35.1905948613138,136.297189728172,,,0,,,,1,,,,0,8,31,11,18,17
24414,1,44,TOKYO,kanto,芝公園,35.6535856440913,139.749375069077,,,0,,,,1,,1,,0,9,14,12,4,15
24855,1,48,NAGANO,chubu,鏡池,36.7497693887232,138.063503700623,1,,0,1,,,,,,,0,8,31,10,18,15
23221,1,32,AKITA,tohoku,田沢湖,39.7270935538477,140.700841789565,1,,0,1,,,,1,,,0,8,31,11,1,9
26020,1,60,SHIGA,kinki,青岸寺,35.3146358411606,136.295386751293,,,1,,,,,,1,1,0,8,31,11,26,8
27202,1,72,KAGAWA,chugoku,寒霞渓,34.5156512100763,134.300706946243,,,0,1,,1,,1,,1,0,8,31,11,9,26
24401,1,44,TOKYO,kanto,高尾山,35.6252324402186,139.243329266953,1,,0,,,,1,,1,1,0,9,8,11,19,17
23636,1,36,FUKUSHIMA,tohoku,須賀川牡丹園,37.2730040188201,140.388907351197,,,0,,,,,,,,0,8,31,11,8,17
23501,,35,YAMAGATA,tohoku,山形蔵王(温泉街付近),38.1692318613794,140.399172525856,1,,0,1,,1,,,,,0,9,15,10,23,14
25407,1,54,NIIGATA,chubu,妙高高原いもり池,36.8658436465151,138.174730936428,1,,0,1,,,,1,1,,0,8,31,10,29,12
26109,1,61,KYOTO,kinki,大江山,35.4534979627405,135.106401983784,,,0,1,,,1,,,,0,8,31,11,10,13
26417,,64,NARA,kinki,吉野山(下千本),34.3720790477411,135.856836657504,1,,0,1,,1,,1,,,0,8,31,11,16,15
24216,1,42,GUNMA,kanto,赤城山(山頂・大沼付近),36.5475645475737,139.184733439898,1,,0,1,,,,,,,0,8,31,10,19,24
23312,1,33,IWATE,tohoku,中尊寺,39.0016410206923,141.101203212112,,,1,1,,,,1,,,0,8,31,11,7,13
26128,1,61,KYOTO,kinki,石清水八幡宮,34.8796749835911,135.700056775611,,,0,,,1,,1,,,0,8,31,11,24,15
26110,1,61,KYOTO,kinki,京都府立笠置山自然公園,34.753467975373,135.941523710952,,,1,1,,,,1,,,0,8,31,11,16,10
28815,1,88,KAGOSHIMA,kyusyu,冠岳,31.748667103762,130.330748078634,1,,0,1,,,,1,,,0,8,31,11,25,9
26332,1,63,HYOGO,kinki,播磨中央公園・ラクウショウの並木道,34.9333070664569,134.939152915563,1,,0,,,,,1,1,,0,8,31,11,13,10
24830,1,48,NAGANO,chubu,八千穂高原自然園,36.0765124639696,138.384490512323,1,,0,,,,1,,,,0,8,31,10,18,12
27212,1,72,KAGAWA,chugoku,銚子渓,34.5145812171588,134.243367955532,,,0,1,,,1,1,,,0,8,31,11,11,12
24501,1,45,CHIBA,kanto,養老渓谷,35.2537133994413,140.16122802433,1,,1,1,,,,,,,0,8,31,12,1,10
25607,1,56,ISHIKAWA,chubu,芦城公園,36.4088566431163,136.448352931108,1,,0,,,,1,1,,,0,8,31,11,10,12
21412,1,14,HOKKAIDO,hokkaido,恵庭渓谷,42.8641649226303,141.40613537008,1,,0,1,,,1,1,,,0,8,31,10,19,8
26017,1,60,SHIGA,kinki,比叡山ドライブウェイ,35.0514689389649,135.839135782841,,,1,1,,1,,1,,,0,8,31,11,10,16
26202,1,62,OSAKA,kinki,明治の森箕面国定公園,34.8496220157562,135.472190809388,1,,0,,,,1,1,,,0,8,31,11,19,14
24808,1,48,NAGANO,chubu,美ヶ原高原,36.2362324704326,138.104113594815,1,,0,1,,,,,,,0,9,15,10,16,15
26103,1,61,KYOTO,kinki,大原三千院,35.1197249284118,135.83442079617,1,,0,,,,1,,1,,0,8,31,11,12,17
24436,1,44,TOKYO,kanto,日比谷公園,35.6737363723245,139.756081177352,,,0,,,,,1,1,,0,8,31,11,28,15
24841,1,48,NAGANO,chubu,柿其渓谷,35.6582146273539,137.606019579023,1,,0,,,,1,,,,0,8,31,11,6,14
26404,1,64,NARA,kinki,大台ヶ原,34.1809320508827,136.097113582333,1,,0,1,,,,,,,0,9,8,10,21,16
24203,1,42,GUNMA,kanto,伊香保温泉,36.4920623298335,138.91486148999,1,,1,,,1,,1,,,0,8,31,11,8,11
24013,,40,IBARAKI,kanto,筑波山(山頂),36.2257762359425,140.100230210927,1,,1,1,,1,,,,,0,8,31,11,10,9
24805,1,48,NAGANO,chubu,上高地(涸沢),36.2949405138107,137.662120688083,,,0,,,,,,,,0,9,15,10,6,10
24314,1,43,SAITAMA,kanto,東郷公園秩父御嶽神社,35.9142253934794,139.216125324757,,,1,1,,,,,1,1,0,8,31,11,22,12
25024,1,50,SHIZUOKA,chubu,浜松城公園,34.667301680771,137.731181219333,1,,1,,,,1,1,1,1,0,8,31,11,29,13
26312,1,63,HYOGO,kinki,音水渓谷,35.2397430689193,134.517562043495,1,,0,1,,,1,,,,0,9,10,11,8,14
24431,1,44,TOKYO,kanto,田園調布銀杏並木,35.5971433960056,139.66669218081,,,0,,,,,1,1,,0,8,31,11,30,14
26715,1,67,HIROSHIMA,chugoku,矢野温泉公園四季の里もみじ谷園,34.6665383315912,133.107319168192,,,0,,,,,1,,1,0,9,8,11,8,13
24867,1,48,NAGANO,chubu,もみじ湖（みのわダム）,35.9334155298433,138.035224550868,,,1,1,,,,,,1,0,8,31,11,9,11
25209,1,52,GIFU,chubu,白川郷,36.2554506126372,136.90275281956,1,,0,,,,,1,1,,0,8,31,10,31,17
26136,1,61,KYOTO,kinki,平等院,34.8893109691522,135.807696758737,,,0,,,,,1,1,,0,8,31,11,19,15
21214,1,12,HOKKAIDO,hokkaido,かなやま湖,43.1504687310834,142.483022200412,,,0,1,,,,1,,,0,9,15,10,17,15
23518,,35,YAMAGATA,tohoku,山形蔵王(山頂付近),38.1707898588076,140.41806852235,1,,0,1,,1,,,,,0,9,15,10,7,10
25512,,55,TOYAMA,chubu,大観峰周辺,36.5695404715228,137.631784746328,,,0,,,1,,1,,,1,9,15,9,22,9
23218,,32,AKITA,tohoku,八幡平(蒸ノ湯温泉),39.9762684958161,140.819320819131,1,,0,1,,,,1,,,0,9,15,10,14,10
27405,1,74,KOUCHI,chugoku,安居渓谷,33.6692674759257,133.19149897497,1,,0,1,,,1,,,,0,9,7,11,6,11
24217,1,42,GUNMA,kanto,洞窟観音　徳明園,36.304980353135,138.988337440716,,,1,,,,1,,,1,0,8,31,11,17,19
25702,1,57,FUKUI,chubu,萬徳寺,35.4688568775521,135.785281869386,,,0,,,,,,1,,0,8,31,11,18,10
24510,1,45,CHIBA,kanto,千葉県立大多喜県民の森,35.2824013860395,140.234688015109,,,0,,,,,,,,0,8,31,11,28,11
23118,,31,AOMORI,tohoku,岩木山(山麓付近),40.6361754538726,140.258538083609,1,,0,1,,1,,1,,,0,9,15,10,25,13
24846,1,48,NAGANO,chubu,大峰高原七色大カエデ,36.4510684595765,137.893783674878,,,0,1,,,,1,,,0,9,8,10,26,12
24627,1,46,KANAGAWA,kanto,円覚寺,35.3380894547354,139.548495157233,,,0,,,,,,1,,0,8,31,12,2,17
26309,1,63,HYOGO,kinki,西脇市日本のへそ日時計の丘公園オートキャンプ場,35.0282790418807,135.016444919934,1,,0,,,,,1,,,0,8,31,11,10,11
22301,1,23,HOKKAIDO,hokkaido,函館公園,41.7563192031337,140.715735248745,1,,0,,,,,1,,,0,8,31,11,5,8
28310,1,83,OITA,kyusyu,九酔渓,33.1757961089602,131.215761594799,1,,0,1,,,1,1,,,0,8,31,11,6,14
28210,1,82,FUKUOKA,kyusyu,中央公園(金比羅山),33.8761667299012,130.838242372881,,,0,,,,1,1,1,,0,8,31,11,21,10
23217,,32,AKITA,tohoku,八幡平(山頂),39.9568594947096,140.854764807472,1,,0,1,,,,1,,,0,9,15,9,30,10
25019,1,50,SHIZUOKA,chubu,接岨峡,35.1785646399466,138.186739384896,1,,0,,,,,,,,0,8,31,11,15,13
26613,1,66,OKAYAMA,chugoku,宇甘渓,34.8486992142475,133.833973084124,1,,1,1,,,,1,,,0,9,1,11,13,13
25715,1,57,FUKUI,chubu,万葉の里味真野苑,35.8854537546187,136.237599868272,,,0,,,,,1,1,,0,8,31,11,10,14
28301,1,83,OITA,kyusyu,両子寺,33.5743166813438,131.60378620419,1,,0,1,,,,1,,,0,8,31,11,12,15
28173,1,87,MIYAZAKI,kyusyu,白鳥温泉付近,31.9790660118211,130.827489045323,1,,0,1,,,,,,,0,8,31,11,11,10
28214,1,82,FUKUOKA,kyusyu,宝満宮竈門神社,33.528694816166,130.551855352306,1,,1,,,,,,1,1,0,8,31,11,20,10
24404,1,44,TOKYO,kanto,小石川後楽園,35.7050323675735,139.749981184168,1,,0,,,,1,1,1,1,0,8,31,11,30,13
26511,1,65,WAKAYAMA,kinki,杉村公園,34.3414380831437,135.599043696384,1,,0,,,,,,,,0,9,1,11,15,13
28118,1,81,YAMAGUCHI,chugoku,重源の郷,34.2157495729842,131.702175305001,1,,0,1,,,,1,,,0,8,31,11,12,13
25502,1,55,TOYAMA,chubu,神通峡,36.4972325309813,137.243277803999,1,,0,1,,,,,,,0,8,31,11,5,17
24107,1,41,TOCHIGI,kanto,日光東照宮・日光二荒山神社・日光山輪王寺,36.7579022027586,139.596755408828,1,,0,,,,,,1,,0,8,31,11,8,13
24836,1,48,NAGANO,chubu,小渋峡,35.6117785900074,137.986499500453,1,,0,1,,,1,1,,,0,8,31,11,9,15
27306,1,73,EHIME,chugoku,稲荷山公園,33.5281405683151,132.600779043063,1,,0,,,,,,,1,,,,,,
26804,1,68,SHIMANE,chugoku,鰐淵寺,35.4231882598028,132.748732368223,1,,0,,,,1,,,,0,8,31,11,18,11
26209,1,62,OSAKA,kinki,靱公園,34.6857990394842,135.49572977567,,,0,,,,,1,1,,0,9,8,11,22,12
28505,1,85,SAGA,kyusyu,大川内山,33.2348609394598,129.893386394855,1,,0,,,,,1,,,0,8,31,11,17,9
25203,1,52,GIFU,chubu,鬼岩公園,35.4125477169353,137.198981607898,1,,0,,,,1,,,,0,8,31,11,14,15
24847,1,48,NAGANO,chubu,智識寺,36.4660054272551,138.14040163164,1,,0,,,,,1,1,,0,8,31,11,11,11
25131,1,51,AICHI,chubu,鶴舞公園,35.1543707931159,136.919703611017,,,0,,,,,,1,,0,8,31,11,19,9
27120,1,71,TOKUSHIMA,chugoku,大轟の滝,33.86132031664,134.27742383335,1,,0,1,,,1,1,1,1,0,9,7,11,9,7
25230,1,52,GIFU,chubu,揖斐峡,35.5299667859282,136.529458181394,1,,0,,,,,1,,,0,8,31,11,13,15
26106,1,61,KYOTO,kinki,神護寺,35.0546089587696,135.669972812743,,,0,1,,,,,,,0,8,31,11,12,18
28318,1,83,OITA,kyusyu,富貴寺,33.5377596959124,131.528802209009,1,,0,,,,,1,,,0,8,31,11,27,5
26217,1,62,OSAKA,kinki,五月山緑地,34.8297530237595,135.432257812624,1,,0,1,,,,1,1,,0,8,31,11,24,12
23606,1,36,FUKUSHIMA,tohoku,甲子高原,37.1748640788702,140.029203403769,1,,0,1,,,,,,,0,8,31,10,28,8
23414,1,34,MIYAGI,tohoku,二口峡谷,38.2729908258976,140.542256517814,1,,0,1,,,1,,,,0,8,31,10,29,10
24123,1,41,TOCHIGI,kanto,落石,36.6609271509118,140.176707276804,,,0,1,,,,1,,,0,9,3,11,18,9
28715,1,87,MIYAZAKI,kyusyu,青井岳荘,31.8294169879149,131.224913962747,,,1,,,,1,1,1,1,0,9,7,11,12,11
28123,1,81,YAMAGUCHI,chugoku,大寧寺,34.3281816228893,131.162850407381,1,,1,,,,,1,1,,0,8,31,11,12,13
26302,1,63,HYOGO,kinki,姫路城西御屋敷跡庭園好古園,34.837960111876,134.689647940141,1,,1,,,,1,1,1,1,0,8,31,11,19,13
26011,1,60,SHIGA,kinki,胡宮神社,35.2152958585179,136.286659734558,,,0,,,,,,,,0,8,31,11,20,16
24215,1,42,GUNMA,kanto,水上温泉(諏訪峡),36.7600312770112,138.973029529881,1,,0,,,,1,,1,,0,8,31,11,6,15
24405,1,44,TOKYO,kanto,殿ヶ谷戸庭園,35.6987193997494,139.48195023461,,,0,,,,1,1,1,,0,8,31,11,28,16
27309,1,73,EHIME,chugoku,石鎚山,33.7682514697902,133.114310004678,1,,0,1,,1,1,1,,1,0,8,31,10,14,43
23503,1,35,YAMAGATA,tohoku,鳥海山(大平鹿公園),39.1069627512051,139.979454804693,1,,0,1,,,,1,,,0,8,31,10,18,8
23220,,32,AKITA,tohoku,八幡平(湯瀬渓谷),40.1252114693576,140.824795850713,1,,0,1,,,,,,,0,9,15,10,31,9
24511,1,45,CHIBA,kanto,もみじロード,35.1718074407988,139.924178055772,1,,0,1,,,1,,,1,0,8,31,12,2,9
28316,1,83,OITA,kyusyu,国東(文殊仙寺、岩戸耶馬),33.6024806758828,131.613941207663,,,0,1,,,,,,,0,8,31,11,21,13
